{
  "version": "https://jsonfeed.org/version/1",
  "title": "Tags from grafana",
  "home_page_url": "https://github.com/grafana/grafana/releases",
  "items": [
    {
      "guid": "tag:github.com,2008:Repository/15111821/v6.4.1",
      "url": "https://github.com/grafana/grafana/releases/tag/v6.4.1",
      "title": "v6.4.1",
      "date_published": "2019-10-02T07:46:11.000Z",
      "author": {
        "name": "torkelo"
      }
    },
    {
      "guid": "tag:github.com,2008:Repository/15111821/v6.4.0",
      "url": "https://github.com/grafana/grafana/releases/tag/v6.4.0",
      "title": "v6.4.0 (2019-10-01)",
      "date_published": "2019-10-01T11:56:56.000Z",
      "author": {
        "name": "hugohaggmark"
      }
    },
    {
      "guid": "tag:github.com,2008:Repository/15111821/v6.4.0-beta2",
      "url": "https://github.com/grafana/grafana/releases/tag/v6.4.0-beta2",
      "title": "v6.4.0-beta2",
      "date_published": "2019-09-25T13:24:54.000Z",
      "author": {
        "name": "torkelo"
      }
    },
    {
      "guid": "tag:github.com,2008:Repository/15111821/v6.3.6",
      "url": "https://github.com/grafana/grafana/releases/tag/v6.3.6",
      "title": "v6.3.6 (2019-09-23)",
      "date_published": "2019-09-23T10:58:12.000Z",
      "author": {
        "name": "papagian"
      }
    },
    {
      "guid": "tag:github.com,2008:Repository/15111821/v6.4.0-beta1",
      "url": "https://github.com/grafana/grafana/releases/tag/v6.4.0-beta1",
      "title": "v6.4.0-beta1 (2019-09-17)",
      "date_published": "2019-09-17T13:16:12.000Z",
      "author": {
        "name": "dprokop"
      }
    },
    {
      "guid": "tag:github.com,2008:Repository/15111821/v6.3.5",
      "url": "https://github.com/grafana/grafana/releases/tag/v6.3.5",
      "title": "v6.3.5",
      "date_published": "2019-09-17T13:31:47.000Z",
      "author": {
        "name": "torkelo"
      }
    },
    {
      "guid": "tag:github.com,2008:Repository/15111821/v6.3.4",
      "url": "https://github.com/grafana/grafana/releases/tag/v6.3.4",
      "title": "v6.3.4",
      "date_published": "2019-08-29T15:27:56.000Z",
      "author": {
        "name": "marefr"
      }
    },
    {
      "guid": "tag:github.com,2008:Repository/15111821/v5.4.5",
      "url": "https://github.com/grafana/grafana/releases/tag/v5.4.5",
      "title": "v5.4.5",
      "date_published": "2019-08-29T15:27:49.000Z",
      "author": {
        "name": "marefr"
      }
    },
    {
      "guid": "tag:github.com,2008:Repository/15111821/v6.3.3",
      "url": "https://github.com/grafana/grafana/releases/tag/v6.3.3",
      "title": "v6.3.3",
      "date_published": "2019-08-15T10:41:01.000Z",
      "author": {
        "name": "marefr"
      }
    },
    {
      "guid": "tag:github.com,2008:Repository/15111821/v6.3.2",
      "url": "https://github.com/grafana/grafana/releases/tag/v6.3.2",
      "title": "v6.3.2",
      "date_published": "2019-08-07T10:54:33.000Z",
      "author": {
        "name": "torkelo"
      }
    }
  ]
}