{
  "version": "https://jsonfeed.org/version/1",
  "title": "Tags from jaeger",
  "home_page_url": "https://github.com/jaegertracing/jaeger/releases",
  "items": [
    {
      "guid": "tag:github.com,2008:Repository/56342508/v1.14.0",
      "url": "https://github.com/jaegertracing/jaeger/releases/tag/v1.14.0",
      "title": "Release 1.14.0",
      "content_html": "<p>Preparing release 1.14.0 (<a class=\"issue-link js-issue-link\" href=\"https://github.com/jaegertracing/jaeger/pull/1768\">#1768</a>)</p>\n\n<p>* Preparing release 1.14.0</p>\n\n<p>Signed-off-by: Pavol Loffay &lt;ploffay@redhat.com&gt;</p>\n\n<p>* Fix changelog</p>\n\n<p>Signed-off-by: Pavol Loffay &lt;ploffay@redhat.com&gt;</p>\n\n<p>* Add missing PR</p>\n\n<p>Signed-off-by: Pavol Loffay &lt;ploffay@redhat.com&gt;</p>\n\n<p>* Capital E</p>\n\n<p>Signed-off-by: Pavol Loffay &lt;ploffay@redhat.com&gt;</p>",
      "date_published": "2019-09-02T15:39:38.000Z",
      "author": {
        "name": "pavolloffay"
      }
    },
    {
      "guid": "tag:github.com,2008:Repository/56342508/v1.13.1",
      "url": "https://github.com/jaegertracing/jaeger/releases/tag/v1.13.1",
      "title": "Release 1.13.1",
      "content_html": "<p>Preparing release 1.13.1 (<a class=\"issue-link js-issue-link\" href=\"https://github.com/jaegertracing/jaeger/pull/1643\">#1643</a>)</p>\n\n<p>Signed-off-by: Pavol Loffay &lt;ploffay@redhat.com&gt;</p>",
      "date_published": "2019-06-28T08:04:12.000Z",
      "author": {
        "name": "pavolloffay"
      }
    },
    {
      "guid": "tag:github.com,2008:Repository/56342508/v1.13.0",
      "url": "https://github.com/jaegertracing/jaeger/releases/tag/v1.13.0",
      "title": "Release 1.13.0",
      "content_html": "<p>Remove deprecated index prefix from dependency store (<a class=\"issue-link js-issue-link\" href=\"https://github.com/jaegertracing/jaeger/pull/1637\">#1637</a>)</p>\n\n<p>Signed-off-by: Pavol Loffay &lt;ploffay@redhat.com&gt;</p>",
      "date_published": "2019-06-27T09:39:56.000Z",
      "author": {
        "name": "pavolloffay"
      }
    },
    {
      "guid": "tag:github.com,2008:Repository/56342508/v1.12.0",
      "url": "https://github.com/jaegertracing/jaeger/releases/tag/v1.12.0",
      "title": "Release 1.12.0",
      "content_html": "<p>Add all storages to env command (<a class=\"issue-link js-issue-link\" href=\"https://github.com/jaegertracing/jaeger/pull/1541\">#1541</a>)</p>\n\n<p>* Add all storages to help command</p>\n\n<p>Signed-off-by: Pavol Loffay &lt;ploffay@redhat.com&gt;</p>\n\n<p>* Fix comment</p>\n\n<p>Signed-off-by: Pavol Loffay &lt;ploffay@redhat.com&gt;</p>",
      "date_published": "2019-06-10T22:50:01.000Z",
      "author": {
        "name": "pavolloffay"
      }
    },
    {
      "guid": "tag:github.com,2008:Repository/56342508/v1.11.0",
      "url": "https://github.com/jaegertracing/jaeger/releases/tag/v1.11.0",
      "title": "Release 1.11.0",
      "content_html": "<p>Do not add indices to not empty alias (<a class=\"issue-link js-issue-link\" href=\"https://github.com/jaegertracing/jaeger/pull/1408\">#1408</a>)</p>\n\n<p>* Do not add indices to not empty alias</p>\n\n<p>Signed-off-by: Pavol Loffay &lt;ploffay@redhat.com&gt;</p>\n\n<p>* rename</p>\n\n<p>Signed-off-by: Pavol Loffay &lt;ploffay@redhat.com&gt;</p>",
      "date_published": "2019-03-07T12:50:48.000Z",
      "author": {
        "name": "pavolloffay"
      }
    },
    {
      "guid": "tag:github.com,2008:Repository/56342508/v1.10.1",
      "url": "https://github.com/jaegertracing/jaeger/releases/tag/v1.10.1",
      "title": "Release 1.10.1",
      "date_published": "2019-02-21T18:04:19.000Z",
      "author": {
        "name": "black-adder"
      }
    },
    {
      "guid": "tag:github.com,2008:Repository/56342508/v1.10.0",
      "url": "https://github.com/jaegertracing/jaeger/releases/tag/v1.10.0",
      "title": "Release 1.10.0",
      "content_html": "<p>Preparing release 1.10.0 (<a class=\"issue-link js-issue-link\" href=\"https://github.com/jaegertracing/jaeger/pull/1352\">#1352</a>)</p>\n\n<p>* Preparing release 1.10.0</p>\n\n<p>Signed-off-by: Pavol Loffay &lt;ploffay@redhat.com&gt;</p>\n\n<p>* Add date</p>\n\n<p>Signed-off-by: Pavol Loffay &lt;ploffay@redhat.com&gt;</p>\n\n<p>* Add unreleased section</p>\n\n<p>Signed-off-by: Pavol Loffay &lt;ploffay@redhat.com&gt;</p>",
      "date_published": "2019-02-15T15:59:44.000Z",
      "author": {
        "name": "pavolloffay"
      }
    },
    {
      "guid": "tag:github.com,2008:Repository/56342508/v1.9.0",
      "url": "https://github.com/jaegertracing/jaeger/releases/tag/v1.9.0",
      "title": "Release 1.9.0",
      "content_html": "<p>Preparing release 1.9.0 (<a class=\"issue-link js-issue-link\" href=\"https://github.com/jaegertracing/jaeger/pull/1292\">#1292</a>)</p>\n\n<p>* Preparing release 1.9.0</p>\n\n<p>Signed-off-by: Pavol Loffay &lt;ploffay@redhat.com&gt;</p>\n\n<p>* Minor improvements</p>\n\n<p>Signed-off-by: Pavol Loffay &lt;ploffay@redhat.com&gt;</p>\n\n<p>* Update CHANGELOG.md</p>",
      "date_published": "2019-01-21T12:34:41.000Z",
      "author": {
        "name": "pavolloffay"
      }
    },
    {
      "guid": "tag:github.com,2008:Repository/56342508/v1.8.2",
      "url": "https://github.com/jaegertracing/jaeger/releases/tag/v1.8.2",
      "title": "Release 1.8.2",
      "content_html": "<p>Add changelog for 1.8.2 (<a class=\"issue-link js-issue-link\" href=\"https://github.com/jaegertracing/jaeger/pull/1227\">#1227</a>)</p>\n\n<p>Signed-off-by: Pavol Loffay &lt;ploffay@redhat.com&gt;</p>",
      "date_published": "2018-11-28T11:10:05.000Z",
      "author": {
        "name": "pavolloffay"
      }
    },
    {
      "guid": "tag:github.com,2008:Repository/56342508/v1.8.1",
      "url": "https://github.com/jaegertracing/jaeger/releases/tag/v1.8.1",
      "title": "Release 1.8.1",
      "content_html": "<p>Add changelog for 1.8.1 (<a class=\"issue-link js-issue-link\" href=\"https://github.com/jaegertracing/jaeger/pull/1209\">#1209</a>)</p>\n\n<p>Signed-off-by: Pavol Loffay &lt;ploffay@redhat.com&gt;</p>",
      "date_published": "2018-11-23T11:14:24.000Z",
      "author": {
        "name": "pavolloffay"
      }
    }
  ]
}