{
  "version": "https://jsonfeed.org/version/1",
  "title": "Tags from pushgateway",
  "home_page_url": "https://github.com/prometheus/pushgateway/releases",
  "items": [
    {
      "guid": "tag:github.com,2008:Repository/16345015/v0.9.1",
      "url": "https://github.com/prometheus/pushgateway/releases/tag/v0.9.1",
      "title": "0.9.1 / 2019-08-01",
      "date_published": "2019-08-01T14:22:12.000Z",
      "author": {
        "name": "prombot"
      }
    },
    {
      "guid": "tag:github.com,2008:Repository/16345015/v0.9.0",
      "url": "https://github.com/prometheus/pushgateway/releases/tag/v0.9.0",
      "title": "0.9.0 / 2019-07-23",
      "date_published": "2019-07-23T15:47:37.000Z",
      "author": {
        "name": "prombot"
      }
    },
    {
      "guid": "tag:github.com,2008:Repository/16345015/v0.8.0",
      "url": "https://github.com/prometheus/pushgateway/releases/tag/v0.8.0",
      "title": "0.8.0 / 2019-04-13",
      "date_published": "2019-04-13T11:43:00.000Z",
      "author": {
        "name": "beorn7"
      }
    },
    {
      "guid": "tag:github.com,2008:Repository/16345015/v0.7.0",
      "url": "https://github.com/prometheus/pushgateway/releases/tag/v0.7.0",
      "title": "0.7.0 / 2018-12-07",
      "date_published": "2018-12-08T00:32:58.000Z",
      "author": {
        "name": "beorn7"
      }
    },
    {
      "guid": "tag:github.com,2008:Repository/16345015/v0.6.0",
      "url": "https://github.com/prometheus/pushgateway/releases/tag/v0.6.0",
      "title": "0.6.0 / 2018-10-17",
      "date_published": "2018-12-07T14:27:32.000Z",
      "author": {
        "name": "beorn7"
      }
    },
    {
      "guid": "tag:github.com,2008:Repository/16345015/v0.5.2",
      "url": "https://github.com/prometheus/pushgateway/releases/tag/v0.5.2",
      "title": "0.5.2 / 2018-06-15",
      "date_published": "2018-06-15T17:01:52.000Z",
      "author": {
        "name": "beorn7"
      }
    },
    {
      "guid": "tag:github.com,2008:Repository/16345015/v0.5.1",
      "url": "https://github.com/prometheus/pushgateway/releases/tag/v0.5.1",
      "title": "0.5.1 / 2018-05-30",
      "date_published": "2018-05-30T14:30:35.000Z",
      "author": {
        "name": "beorn7"
      }
    },
    {
      "guid": "tag:github.com,2008:Repository/16345015/v0.5.0",
      "url": "https://github.com/prometheus/pushgateway/releases/tag/v0.5.0",
      "title": "0.5.0 / 2018-05-23",
      "date_published": "2018-06-07T16:30:06.000Z",
      "author": {
        "name": "SuperQ"
      }
    },
    {
      "guid": "tag:github.com,2008:Repository/16345015/v0.4.0",
      "url": "https://github.com/prometheus/pushgateway/releases/tag/v0.4.0",
      "title": "0.4.0 / 2017-06-09",
      "date_published": "2017-06-09T12:37:57.000Z",
      "author": {
        "name": "brian-brazil"
      }
    },
    {
      "guid": "tag:github.com,2008:Repository/16345015/v0.3.1",
      "url": "https://github.com/prometheus/pushgateway/releases/tag/v0.3.1",
      "title": "0.3.1 / 2016-11-03",
      "date_published": "2016-11-03T13:35:00.000Z",
      "author": {
        "name": "prombot"
      }
    }
  ]
}