{
  "version": "https://jsonfeed.org/version/1",
  "title": "Tags from riemann",
  "home_page_url": "https://github.com/riemann/riemann/releases",
  "items": [
    {
      "guid": "tag:github.com,2008:Repository/3385297/0.3.4",
      "url": "https://github.com/riemann/riemann/releases/tag/0.3.4",
      "title": "0.3.4",
      "date_published": "2019-09-27T17:19:47.000Z",
      "author": {
        "name": "jamtur01"
      }
    },
    {
      "guid": "tag:github.com,2008:Repository/3385297/0.3.3",
      "url": "https://github.com/riemann/riemann/releases/tag/0.3.3",
      "title": "0.3.3",
      "date_published": "2019-07-08T12:39:34.000Z",
      "author": {
        "name": "jamtur01"
      }
    },
    {
      "guid": "tag:github.com,2008:Repository/3385297/0.3.2",
      "url": "https://github.com/riemann/riemann/releases/tag/0.3.2",
      "title": "0.3.2",
      "date_published": "2019-05-12T19:18:06.000Z",
      "author": {
        "name": "jamtur01"
      }
    },
    {
      "guid": "tag:github.com,2008:Repository/3385297/0.3.1",
      "url": "https://github.com/riemann/riemann/releases/tag/0.3.1",
      "title": "0.3.1",
      "date_published": "2018-05-23T17:23:12.000Z",
      "author": {
        "name": "jamtur01"
      }
    },
    {
      "guid": "tag:github.com,2008:Repository/3385297/0.3.0",
      "url": "https://github.com/riemann/riemann/releases/tag/0.3.0",
      "title": "0.3.0",
      "date_published": "2018-01-15T18:08:40.000Z",
      "author": {
        "name": "jamtur01"
      }
    },
    {
      "guid": "tag:github.com,2008:Repository/3385297/0.2.14",
      "url": "https://github.com/riemann/riemann/releases/tag/0.2.14",
      "title": "0.2.14",
      "date_published": "2017-07-10T16:19:15.000Z",
      "author": {
        "name": "jamtur01"
      }
    },
    {
      "guid": "tag:github.com,2008:Repository/3385297/0.2.13",
      "url": "https://github.com/riemann/riemann/releases/tag/0.2.13",
      "title": "0.2.13",
      "date_published": "2017-04-06T13:22:48.000Z",
      "author": {
        "name": "jamtur01"
      }
    },
    {
      "guid": "tag:github.com,2008:Repository/3385297/0.2.12",
      "url": "https://github.com/riemann/riemann/releases/tag/0.2.12",
      "title": "Version 0.2.12",
      "date_published": "2016-12-06T04:55:55.000Z",
      "author": {
        "name": "jamtur01"
      }
    },
    {
      "guid": "tag:github.com,2008:Repository/3385297/0.2.11",
      "url": "https://github.com/riemann/riemann/releases/tag/0.2.11",
      "title": "Riemann 0.2.11",
      "date_published": "2016-09-10T23:23:13.000Z",
      "author": {
        "name": "jamtur01"
      }
    },
    {
      "guid": "tag:github.com,2008:Repository/3385297/0.2.10",
      "url": "https://github.com/riemann/riemann/releases/tag/0.2.10",
      "title": "0.2.10",
      "date_published": "2015-07-21T16:55:33.000Z",
      "author": {
        "name": "aphyr"
      }
    }
  ]
}