{
  "version": "https://jsonfeed.org/version/1",
  "title": "Release notes from chronograf",
  "home_page_url": "https://github.com/influxdata/chronograf/releases",
  "items": [
    {
      "guid": "tag:github.com,2008:Repository/66506962/1.7.14",
      "url": "https://github.com/influxdata/chronograf/releases/tag/1.7.14",
      "title": "1.7.14",
      "content_html": "<h2>v1.7.14 [2019-08-27]</h2>\n<h3>Bug Fixes</h3>\n<ol>\n<li><a href=\"https://github.com/influxdata/chronograf/pull/5263\" data-hovercard-type=\"issue\" data-hovercard-url=\"/influxdata/chronograf/issues/5263/hovercard\">#5263</a>: Fix DataExplorer crashing due to empty query</li>\n<li><a href=\"https://github.com/influxdata/chronograf/pull/5266\" data-hovercard-type=\"issue\" data-hovercard-url=\"/influxdata/chronograf/issues/5266/hovercard\">#5166</a>: Fix styles in Kapacitor alert config page</li>\n</ol>",
      "date_published": "2019-08-27T19:20:08.000Z",
      "author": {
        "name": "desa"
      }
    },
    {
      "guid": "tag:github.com,2008:Repository/66506962/1.7.13",
      "url": "https://github.com/influxdata/chronograf/releases/tag/1.7.13",
      "title": "1.7.13",
      "content_html": "<h2>v1.7.13 [2019-08-20]</h2>\n<h3>Bug Fixes</h3>\n<ol>\n<li><a href=\"https://github.com/influxdata/chronograf/pull/5217\" data-hovercard-type=\"pull_request\" data-hovercard-url=\"/influxdata/chronograf/pull/5217/hovercard\">#5217</a>: Fix scroll to row bug on table graphs</li>\n<li><a href=\"https://github.com/influxdata/chronograf/pull/5170\" data-hovercard-type=\"issue\" data-hovercard-url=\"/influxdata/chronograf/issues/5170/hovercard\">#5170</a>: Wrap inline commas in quotes to distinguish from csv delimiters</li>\n<li><a href=\"https://github.com/influxdata/chronograf/pull/5225\" data-hovercard-type=\"pull_request\" data-hovercard-url=\"/influxdata/chronograf/pull/5225/hovercard\">#5225</a>: Fix tickscript editor syntax coloring</li>\n<li><a href=\"https://github.com/influxdata/chronograf/pull/5227\" data-hovercard-type=\"pull_request\" data-hovercard-url=\"/influxdata/chronograf/pull/5227/hovercard\">#5227</a>: Fix Fix JWK check when using login_id</li>\n<li><a href=\"https://github.com/influxdata/chronograf/pull/5249\" data-hovercard-type=\"pull_request\" data-hovercard-url=\"/influxdata/chronograf/pull/5249/hovercard\">#5249</a>: Fix dashboard typos</li>\n<li><a href=\"https://github.com/influxdata/chronograf/pull/5220\" data-hovercard-type=\"pull_request\" data-hovercard-url=\"/influxdata/chronograf/pull/5220/hovercard\">#5220</a>: Configure papaparse to distinguish inline vs delimiter commas</li>\n<li><a href=\"https://github.com/influxdata/chronograf/pull/5225\" data-hovercard-type=\"pull_request\" data-hovercard-url=\"/influxdata/chronograf/pull/5225/hovercard\">#5225</a>: Fix TICKScript editor coloring for boolean literals</li>\n<li><a href=\"https://github.com/influxdata/chronograf/pull/5227\" data-hovercard-type=\"pull_request\" data-hovercard-url=\"/influxdata/chronograf/pull/5227/hovercard\">#5227</a>: Fix JWK signing key check</li>\n<li><a href=\"https://github.com/influxdata/chronograf/pull/5228\" data-hovercard-type=\"pull_request\" data-hovercard-url=\"/influxdata/chronograf/pull/5228/hovercard\">#5228</a>: Fix alert rule message text template parsing</li>\n<li><a href=\"https://github.com/influxdata/chronograf/pull/5131\" data-hovercard-type=\"issue\" data-hovercard-url=\"/influxdata/chronograf/issues/5131/hovercard\">#5131</a>: Fix erroneous query manipulation</li>\n<li><a href=\"https://github.com/influxdata/chronograf/pull/5244\" data-hovercard-type=\"pull_request\" data-hovercard-url=\"/influxdata/chronograf/pull/5244/hovercard\">#5244</a>: Fix group by database for numSeries and numMeasurement queries in canned dashboards</li>\n<li><a href=\"https://github.com/influxdata/chronograf/pull/5248\" data-hovercard-type=\"pull_request\" data-hovercard-url=\"/influxdata/chronograf/pull/5248/hovercard\">#5248</a>: Update axios and lodash dependenies with known vulnerabilities</li>\n<li><a href=\"https://github.com/influxdata/chronograf/pull/5249\" data-hovercard-type=\"pull_request\" data-hovercard-url=\"/influxdata/chronograf/pull/5249/hovercard\">#5249</a>: Fix dashboard typos in protoboard queries</li>\n<li><a href=\"https://github.com/influxdata/chronograf/pull/5258\" data-hovercard-type=\"pull_request\" data-hovercard-url=\"/influxdata/chronograf/pull/5258/hovercard\">#5258</a>: Fix repeating last command in Data Explore window when multiple tabs are open</li>\n</ol>\n<h3>Features</h3>\n<ol>\n<li><a href=\"https://github.com/influxdata/chronograf/pull/5218\" data-hovercard-type=\"pull_request\" data-hovercard-url=\"/influxdata/chronograf/pull/5218/hovercard\">#5218</a>: Add toggle for UTL and local time</li>\n<li><a href=\"https://github.com/influxdata/chronograf/pull/5222\" data-hovercard-type=\"pull_request\" data-hovercard-url=\"/influxdata/chronograf/pull/5222/hovercard\">#5222</a>: Add time zone selector to data explorer</li>\n<li><a href=\"https://github.com/influxdata/chronograf/pull/5224\" data-hovercard-type=\"pull_request\" data-hovercard-url=\"/influxdata/chronograf/pull/5224/hovercard\">#5224</a>: Add time zone toggle</li>\n<li><a href=\"https://github.com/influxdata/chronograf/pull/5224\" data-hovercard-type=\"pull_request\" data-hovercard-url=\"/influxdata/chronograf/pull/5224/hovercard\">#5229</a>: Add Login Hint and redirect to OAuth provider automatically</li>\n</ol>",
      "date_published": "2019-08-20T22:03:48.000Z",
      "author": {
        "name": "desa"
      }
    },
    {
      "guid": "tag:github.com,2008:Repository/66506962/1.7.12",
      "url": "https://github.com/influxdata/chronograf/releases/tag/1.7.12",
      "title": "1.7.12",
      "content_html": "<h2>v1.7.12 [2019-06-20]</h2>\n<h3>Bug Fixes</h3>\n<ol>\n<li><a href=\"https://github.com/influxdata/chronograf/pull/5208\" data-hovercard-type=\"pull_request\" data-hovercard-url=\"/influxdata/chronograf/pull/5208/hovercard\">#5208</a>: Clarify wording of PagerDuty v1 deprecation message</li>\n<li><a href=\"https://github.com/influxdata/chronograf/pull/5198\" data-hovercard-type=\"pull_request\" data-hovercard-url=\"/influxdata/chronograf/pull/5198/hovercard\">#5198</a>: Requesting info from an unavailable source no longer causes the page to hang</li>\n<li><a href=\"https://github.com/influxdata/chronograf/pull/5171\" data-hovercard-type=\"pull_request\" data-hovercard-url=\"/influxdata/chronograf/pull/5171/hovercard\">#5171</a>: Create chronograf user before CentOS installation</li>\n<li><a href=\"https://github.com/influxdata/chronograf/pull/5183\" data-hovercard-type=\"pull_request\" data-hovercard-url=\"/influxdata/chronograf/pull/5183/hovercard\">#5183</a>: Add support for web workers in IE11</li>\n<li><a href=\"https://github.com/influxdata/chronograf/pull/5184\" data-hovercard-type=\"pull_request\" data-hovercard-url=\"/influxdata/chronograf/pull/5184/hovercard\">#5184</a>: Properly update query time bounds when zooming in on a dashboard</li>\n<li><a href=\"https://github.com/influxdata/chronograf/pull/5139\" data-hovercard-type=\"issue\" data-hovercard-url=\"/influxdata/chronograf/issues/5139/hovercard\">#5139</a>: Fix an issue where Flux responses weren't parsed correctly</li>\n</ol>\n<h3>Features</h3>\n<ol>\n<li><a href=\"https://github.com/influxdata/chronograf/pull/5187\" data-hovercard-type=\"pull_request\" data-hovercard-url=\"/influxdata/chronograf/pull/5187/hovercard\">#5187</a>: Allow negative numbers for configured y-axis minimums</li>\n</ol>\n<h2>Docker</h2>\n<p><code>docker pull quay.io/influxdb/chronograf:1.7.12</code></p>\n<h2>Packages</h2>\n<table>\n<thead>\n<tr>\n<th>Platform</th>\n<th>Package</th>\n<th>SHA256</th>\n</tr>\n</thead>\n<tbody>\n<tr>\n<td>CentOS</td>\n<td><a href=\"https://dl.influxdata.com/chronograf/releases/chronograf-1.7.12.arm64.rpm\" rel=\"nofollow\">chronograf-1.7.12.arm64.rpm</a></td>\n<td><code>4d4ce9cadd88522feb98763a3ba9212de7f8db674d233ebdc05892e22874ff79</code></td>\n</tr>\n<tr>\n<td>CentOS</td>\n<td><a href=\"https://dl.influxdata.com/chronograf/releases/chronograf-1.7.12.armel.rpm\" rel=\"nofollow\">chronograf-1.7.12.armel.rpm</a></td>\n<td><code>6eabf3f15e7068dc6c7855fa018c161bfb2702d7c8c93c5296e9d076b81c38b8</code></td>\n</tr>\n<tr>\n<td>CentOS</td>\n<td><a href=\"https://dl.influxdata.com/chronograf/releases/chronograf-1.7.12.armhf.rpm\" rel=\"nofollow\">chronograf-1.7.12.armhf.rpm</a></td>\n<td><code>7409d1e837afa22ccbb1c06897c9747f8f0682f4d03000e3579cabf364735080</code></td>\n</tr>\n<tr>\n<td>CentOS</td>\n<td><a href=\"https://dl.influxdata.com/chronograf/releases/chronograf-1.7.12.i386.rpm\" rel=\"nofollow\">chronograf-1.7.12.i386.rpm</a></td>\n<td><code>1d3b3568b333910440b0997d8a71a34d3f15127f7f9588bbdf8431492596adf9</code></td>\n</tr>\n<tr>\n<td>CentOS</td>\n<td><a href=\"https://dl.influxdata.com/chronograf/releases/chronograf-1.7.12.x86_64.rpm\" rel=\"nofollow\">chronograf-1.7.12.x86_64.rpm</a></td>\n<td><code>8bc30cc27a0554c9ad7792b2ffe8b6cbc4000c563c95e437029ad2496b359df4</code></td>\n</tr>\n<tr>\n<td>Linux Static</td>\n<td><a href=\"https://dl.influxdata.com/chronograf/releases/chronograf-1.7.12-static_linux_amd64.tar.gz\" rel=\"nofollow\">chronograf-1.7.12-static_linux_amd64.tar.gz</a></td>\n<td><code>9b78a10717792ab1b43b7c00d2b5b8ef93fed68916005192a2226e98a7e40f87</code></td>\n</tr>\n<tr>\n<td>Linux Static</td>\n<td><a href=\"https://dl.influxdata.com/chronograf/releases/chronograf-1.7.12-static_linux_i386.tar.gz\" rel=\"nofollow\">chronograf-1.7.12-static_linux_i386.tar.gz</a></td>\n<td><code>ef89902a60847a62b48db7f36b04c8bab94917423c0e674f01b4bfa633a2d659</code></td>\n</tr>\n<tr>\n<td>Linux</td>\n<td><a href=\"https://dl.influxdata.com/chronograf/releases/chronograf-1.7.12_linux_amd64.tar.gz\" rel=\"nofollow\">chronograf-1.7.12_linux_amd64.tar.gz</a></td>\n<td><code>e1010b6a6fb1ed013bf928f9004a9a876033b1a6bd0ca66e9fcba6b4c96f92ee</code></td>\n</tr>\n<tr>\n<td>Linux</td>\n<td><a href=\"https://dl.influxdata.com/chronograf/releases/chronograf-1.7.12_linux_arm64.tar.gz\" rel=\"nofollow\">chronograf-1.7.12_linux_arm64.tar.gz</a></td>\n<td><code>738bda4b8d18d082763f7da87e8891713f9b2d66464952e0c0cb95a8194d2fd7</code></td>\n</tr>\n<tr>\n<td>Linux</td>\n<td><a href=\"https://dl.influxdata.com/chronograf/releases/chronograf-1.7.12_linux_armel.tar.gz\" rel=\"nofollow\">chronograf-1.7.12_linux_armel.tar.gz</a></td>\n<td><code>ad941e276b569f8b218581af30125a11741d3759d434389ba40d7a0aa01d4d7b</code></td>\n</tr>\n<tr>\n<td>Linux</td>\n<td><a href=\"https://dl.influxdata.com/chronograf/releases/chronograf-1.7.12_linux_armhf.tar.gz\" rel=\"nofollow\">chronograf-1.7.12_linux_armhf.tar.gz</a></td>\n<td><code>01b89c93489fd045f0aaf09b710dd2a3e5d7d77bbdfc66e3c00a318a9ea74fe7</code></td>\n</tr>\n<tr>\n<td>Linux</td>\n<td><a href=\"https://dl.influxdata.com/chronograf/releases/chronograf-1.7.12_linux_i386.tar.gz\" rel=\"nofollow\">chronograf-1.7.12_linux_i386.tar.gz</a></td>\n<td><code>16ff1e949d2eea6308337eaceeee057a0901bf7079423439936927cf96acadbf</code></td>\n</tr>\n<tr>\n<td>Mac OS X</td>\n<td><a href=\"https://dl.influxdata.com/chronograf/releases/chronograf-1.7.12_darwin_amd64.tar.gz\" rel=\"nofollow\">chronograf-1.7.12_darwin_amd64.tar.gz</a></td>\n<td><code>fa9f73857547f840231ea7f725f99c1036a9a2a4f63f9cc401da45861f1d9347</code></td>\n</tr>\n<tr>\n<td>Ubuntu</td>\n<td><a href=\"https://dl.influxdata.com/chronograf/releases/chronograf_1.7.12_amd64.deb\" rel=\"nofollow\">chronograf_1.7.12_amd64.deb</a></td>\n<td><code>ea261d5de9ad7738980f091cb78c5762ee57cdac8bf56ec1fdf36953351ff2cc</code></td>\n</tr>\n<tr>\n<td>Ubuntu</td>\n<td><a href=\"https://dl.influxdata.com/chronograf/releases/chronograf_1.7.12_arm64.deb\" rel=\"nofollow\">chronograf_1.7.12_arm64.deb</a></td>\n<td><code>7f910408b08820d9e7f55c27bf77bd0b3409a08540baca477f530d048b9e40a2</code></td>\n</tr>\n<tr>\n<td>Ubuntu</td>\n<td><a href=\"https://dl.influxdata.com/chronograf/releases/chronograf_1.7.12_armel.deb\" rel=\"nofollow\">chronograf_1.7.12_armel.deb</a></td>\n<td><code>30628aa5648a4eab67858bae0f03da4a61baf2496bb49e530b4e422143dfaa58</code></td>\n</tr>\n<tr>\n<td>Ubuntu</td>\n<td><a href=\"https://dl.influxdata.com/chronograf/releases/chronograf_1.7.12_armhf.deb\" rel=\"nofollow\">chronograf_1.7.12_armhf.deb</a></td>\n<td><code>e29e5845bccc81105a881022d27b0b7c2335748de7ecf6d9eef381d91ab10af9</code></td>\n</tr>\n<tr>\n<td>Ubuntu</td>\n<td><a href=\"https://dl.influxdata.com/chronograf/releases/chronograf_1.7.12_i386.deb\" rel=\"nofollow\">chronograf_1.7.12_i386.deb</a></td>\n<td><code>0fea83927b92d960b09be8d157913764e5fe89568ffd540e1cf9fe96fd0df2f0</code></td>\n</tr>\n<tr>\n<td>Windows</td>\n<td><a href=\"https://dl.influxdata.com/chronograf/releases/chronograf-1.7.12_windows_amd64.zip\" rel=\"nofollow\">chronograf-1.7.12_windows_amd64.zip</a></td>\n<td><code>5bc37af4628d1481270dc0cd49f03cc4ffe700635ef869e19ff55f19c788e26d</code></td>\n</tr>\n</tbody>\n</table>",
      "date_published": "2019-06-21T18:09:26.000Z",
      "author": {
        "name": "lukevmorris"
      }
    },
    {
      "guid": "tag:github.com,2008:Repository/66506962/1.7.11",
      "url": "https://github.com/influxdata/chronograf/releases/tag/1.7.11",
      "title": "1.7.11",
      "content_html": "<h3>Bug Fixes</h3>\n<ol>\n<li><a href=\"https://github.com/influxdata/chronograf/pull/5154\" data-hovercard-type=\"pull_request\" data-hovercard-url=\"/influxdata/chronograf/pull/5154/hovercard\">#5154</a>: Fix fetching tag keys in flux builder</li>\n</ol>\n<h2>Docker</h2>\n<p><code>docker pull quay.io/influxdb/chronograf:1.7.11</code></p>\n<h2>Packages</h2>\n<table>\n<thead>\n<tr>\n<th>Platform</th>\n<th>Package</th>\n<th>SHA256</th>\n</tr>\n</thead>\n<tbody>\n<tr>\n<td>CentOS</td>\n<td><a href=\"https://dl.influxdata.com/chronograf/releases/chronograf-1.7.11.arm64.rpm\" rel=\"nofollow\">chronograf-1.7.11.arm64.rpm</a></td>\n<td><code>de4c0b402aecdd8f6094ffbb6eaeaae780be1e7cf63f975f473dbd71749359e5</code></td>\n</tr>\n<tr>\n<td>CentOS</td>\n<td><a href=\"https://dl.influxdata.com/chronograf/releases/chronograf-1.7.11.armel.rpm\" rel=\"nofollow\">chronograf-1.7.11.armel.rpm</a></td>\n<td><code>533f9640e92af8bee3dbcd0c2b19393eb4d10e284d12fa440921c5b6debe64a1</code></td>\n</tr>\n<tr>\n<td>CentOS</td>\n<td><a href=\"https://dl.influxdata.com/chronograf/releases/chronograf-1.7.11.armhf.rpm\" rel=\"nofollow\">chronograf-1.7.11.armhf.rpm</a></td>\n<td><code>d7003147f3396801e990b2a360973427336fa75dbb1689de9d91e9e8000577b1</code></td>\n</tr>\n<tr>\n<td>CentOS</td>\n<td><a href=\"https://dl.influxdata.com/chronograf/releases/chronograf-1.7.11.i386.rpm\" rel=\"nofollow\">chronograf-1.7.11.i386.rpm</a></td>\n<td><code>ccddcad49cf8575c26241feb6d865a737cd51be7f4a4075912a517def6f73897</code></td>\n</tr>\n<tr>\n<td>CentOS</td>\n<td><a href=\"https://dl.influxdata.com/chronograf/releases/chronograf-1.7.11.x86_64.rpm\" rel=\"nofollow\">chronograf-1.7.11.x86_64.rpm</a></td>\n<td><code>0d3195a802062f751e4d42c6ec72a86e95717eabf7c0d9b7d52b074cfd5e1bfa</code></td>\n</tr>\n<tr>\n<td>Linux Static</td>\n<td><a href=\"https://dl.influxdata.com/chronograf/releases/chronograf-1.7.11-static_linux_amd64.tar.gz\" rel=\"nofollow\">chronograf-1.7.11-static_linux_amd64.tar.gz</a></td>\n<td><code>bee5b390c94d557c548cca62fb800cf8b07fe6f7e08f5f117678ac4595575383</code></td>\n</tr>\n<tr>\n<td>Linux Static</td>\n<td><a href=\"https://dl.influxdata.com/chronograf/releases/chronograf-1.7.11-static_linux_i386.tar.gz\" rel=\"nofollow\">chronograf-1.7.11-static_linux_i386.tar.gz</a></td>\n<td><code>77a4a49b76e98c2e6ced5db10d08d77eb5d356c81632df96f59a9441d4c6047c</code></td>\n</tr>\n<tr>\n<td>Linux</td>\n<td><a href=\"https://dl.influxdata.com/chronograf/releases/chronograf-1.7.11_linux_amd64.tar.gz\" rel=\"nofollow\">chronograf-1.7.11_linux_amd64.tar.gz</a></td>\n<td><code>52dd3320099b2fde582f211cbdad859886a41c7a85476c5668e51644bbb89a08</code></td>\n</tr>\n<tr>\n<td>Linux</td>\n<td><a href=\"https://dl.influxdata.com/chronograf/releases/chronograf-1.7.11_linux_arm64.tar.gz\" rel=\"nofollow\">chronograf-1.7.11_linux_arm64.tar.gz</a></td>\n<td><code>8334e7e64cf6c99507fa4d8650fe944e6066022e3e9dec8ab5db01474851dfe3</code></td>\n</tr>\n<tr>\n<td>Linux</td>\n<td><a href=\"https://dl.influxdata.com/chronograf/releases/chronograf-1.7.11_linux_armel.tar.gz\" rel=\"nofollow\">chronograf-1.7.11_linux_armel.tar.gz</a></td>\n<td><code>f5ee7023ae25eb95694e8ce77b2258c1d06412b4feee9afc6296b881c2b013b8</code></td>\n</tr>\n<tr>\n<td>Linux</td>\n<td><a href=\"https://dl.influxdata.com/chronograf/releases/chronograf-1.7.11_linux_armhf.tar.gz\" rel=\"nofollow\">chronograf-1.7.11_linux_armhf.tar.gz</a></td>\n<td><code>36e4603a0439a6a0e2d10171e126b5d09294d87a23ca0bbb881c05e9e9d34383</code></td>\n</tr>\n<tr>\n<td>Linux</td>\n<td><a href=\"https://dl.influxdata.com/chronograf/releases/chronograf-1.7.11_linux_i386.tar.gz\" rel=\"nofollow\">chronograf-1.7.11_linux_i386.tar.gz</a></td>\n<td><code>f942cea3665bff06df8334dde85c2768d20456492f7dab2ed77e5189c4cdd5b4</code></td>\n</tr>\n<tr>\n<td>Mac OS X</td>\n<td><a href=\"https://dl.influxdata.com/chronograf/releases/chronograf-1.7.11_darwin_amd64.tar.gz\" rel=\"nofollow\">chronograf-1.7.11_darwin_amd64.tar.gz</a></td>\n<td><code>1a1bd706bcea7da43069e8bd049b5592e39d2ca2a0b5b8cf40b4db49e1af94d6</code></td>\n</tr>\n<tr>\n<td>Ubuntu</td>\n<td><a href=\"https://dl.influxdata.com/chronograf/releases/chronograf_1.7.11_amd64.deb\" rel=\"nofollow\">chronograf_1.7.11_amd64.deb</a></td>\n<td><code>51843184744adc56b33c10f122a40a915fafcce53450b7d5e664ee08a031b39c</code></td>\n</tr>\n<tr>\n<td>Ubuntu</td>\n<td><a href=\"https://dl.influxdata.com/chronograf/releases/chronograf_1.7.11_arm64.deb\" rel=\"nofollow\">chronograf_1.7.11_arm64.deb</a></td>\n<td><code>b31acf53a6796c96a1e638b168e83fcc4ab1a5fe942aa30265fd2de49c4cd1d7</code></td>\n</tr>\n<tr>\n<td>Ubuntu</td>\n<td><a href=\"https://dl.influxdata.com/chronograf/releases/chronograf_1.7.11_armel.deb\" rel=\"nofollow\">chronograf_1.7.11_armel.deb</a></td>\n<td><code>59a2950b4a0529d3da4bb374b0eb28afcd7747e63c84ff51a1771b35e6b619a3</code></td>\n</tr>\n<tr>\n<td>Ubuntu</td>\n<td><a href=\"https://dl.influxdata.com/chronograf/releases/chronograf_1.7.11_armhf.deb\" rel=\"nofollow\">chronograf_1.7.11_armhf.deb</a></td>\n<td><code>d83efac8b8fce5e767f2d5a21aef218edcabe54895d66e4b15c827261b32f173</code></td>\n</tr>\n<tr>\n<td>Ubuntu</td>\n<td><a href=\"https://dl.influxdata.com/chronograf/releases/chronograf_1.7.11_i386.deb\" rel=\"nofollow\">chronograf_1.7.11_i386.deb</a></td>\n<td><code>bf3d2b0e574a23baae997523fad13a7595b4d3dd73a39beaa2dd18fbc0371e2f</code></td>\n</tr>\n<tr>\n<td>Windows</td>\n<td><a href=\"https://dl.influxdata.com/chronograf/releases/chronograf-1.7.11_windows_amd64.zip\" rel=\"nofollow\">chronograf-1.7.11_windows_amd64.zip</a></td>\n<td><code>eb6f43d748c59c5299b895150a800a13840cdb39a863aaf1c422fda648021f60</code></td>\n</tr>\n</tbody>\n</table>",
      "date_published": "2019-04-24T17:41:53.000Z",
      "author": {
        "name": "bthesorceror"
      }
    },
    {
      "guid": "tag:github.com,2008:Repository/66506962/1.7.10",
      "url": "https://github.com/influxdata/chronograf/releases/tag/1.7.10",
      "title": "1.7.10",
      "content_html": "<h3>Bug Fixes</h3>\n<ol>\n<li><a href=\"https://github.com/influxdata/chronograf/pull/5110\" data-hovercard-type=\"pull_request\" data-hovercard-url=\"/influxdata/chronograf/pull/5110/hovercard\">#5110</a>: Fix the input for line controls in visualization options</li>\n<li><a href=\"https://github.com/influxdata/chronograf/pull/5149\" data-hovercard-type=\"pull_request\" data-hovercard-url=\"/influxdata/chronograf/pull/5149/hovercard\">#5149</a>: Fix Cell editor visualization not using ceo time range</li>\n<li><a href=\"https://github.com/influxdata/chronograf/pull/5148\" data-hovercard-type=\"pull_request\" data-hovercard-url=\"/influxdata/chronograf/pull/5148/hovercard\">#5148</a>: Fixed an issue where imports were not working in Flux scripts</li>\n</ol>\n<h3>Features</h3>\n<ol>\n<li><a href=\"https://github.com/influxdata/chronograf/pull/5150\" data-hovercard-type=\"pull_request\" data-hovercard-url=\"/influxdata/chronograf/pull/5150/hovercard\">#5150</a>: Updated the UI to work with the latest Flux version</li>\n</ol>\n<h2>Docker</h2>\n<p><code>docker pull quay.io/influxdb/chronograf:1.7.10</code></p>\n<h2>Packages</h2>\n<table>\n<thead>\n<tr>\n<th>Platform</th>\n<th>Package</th>\n<th>SHA256</th>\n</tr>\n</thead>\n<tbody>\n<tr>\n<td>CentOS</td>\n<td><a href=\"https://dl.influxdata.com/chronograf/releases/chronograf-1.7.10.arm64.rpm\" rel=\"nofollow\">chronograf-1.7.10.arm64.rpm</a></td>\n<td><code>60fb8c1ff994a1da068fb614cb990dc45a54a3ca50c46f0abe171f4ea2fb49d9</code></td>\n</tr>\n<tr>\n<td>CentOS</td>\n<td><a href=\"https://dl.influxdata.com/chronograf/releases/chronograf-1.7.10.armel.rpm\" rel=\"nofollow\">chronograf-1.7.10.armel.rpm</a></td>\n<td><code>4c2c7eeafcb828ce9399bff675f75cc97dacdc748d35e89b3fac083dae968b8c</code></td>\n</tr>\n<tr>\n<td>CentOS</td>\n<td><a href=\"https://dl.influxdata.com/chronograf/releases/chronograf-1.7.10.armhf.rpm\" rel=\"nofollow\">chronograf-1.7.10.armhf.rpm</a></td>\n<td><code>4cf8e8ebafe1f6de786c6a7ede298d24791ef114ed78e65575484553a7555d9a</code></td>\n</tr>\n<tr>\n<td>CentOS</td>\n<td><a href=\"https://dl.influxdata.com/chronograf/releases/chronograf-1.7.10.i386.rpm\" rel=\"nofollow\">chronograf-1.7.10.i386.rpm</a></td>\n<td><code>fc55e1e79cfb950d9c01426cecc6e647e044e14144a77315e68f7bd64dd873ec</code></td>\n</tr>\n<tr>\n<td>CentOS</td>\n<td><a href=\"https://dl.influxdata.com/chronograf/releases/chronograf-1.7.10.x86_64.rpm\" rel=\"nofollow\">chronograf-1.7.10.x86_64.rpm</a></td>\n<td><code>bb47ca424e9633b1129795c3ce86f312c818c1d21e6b7ca74b76bbfd2a333da5</code></td>\n</tr>\n<tr>\n<td>Linux Static</td>\n<td><a href=\"https://dl.influxdata.com/chronograf/releases/chronograf-1.7.10-static_linux_amd64.tar.gz\" rel=\"nofollow\">chronograf-1.7.10-static_linux_amd64.tar.gz</a></td>\n<td><code>f262af16afd980bbc8da6d26554966cdf0a308137280711cbc0b5aad46421ef8</code></td>\n</tr>\n<tr>\n<td>Linux Static</td>\n<td><a href=\"https://dl.influxdata.com/chronograf/releases/chronograf-1.7.10-static_linux_i386.tar.gz\" rel=\"nofollow\">chronograf-1.7.10-static_linux_i386.tar.gz</a></td>\n<td><code>21a8ba871ea7ac0247584f3ff92da44d7e902e3579e7927ce056cca6358eba7e</code></td>\n</tr>\n<tr>\n<td>Linux</td>\n<td><a href=\"https://dl.influxdata.com/chronograf/releases/chronograf-1.7.10_linux_amd64.tar.gz\" rel=\"nofollow\">chronograf-1.7.10_linux_amd64.tar.gz</a></td>\n<td><code>7559fc0f1f2fee95353fe4e400dd6f3a5141c80c28b31fd2638c058f16eaee38</code></td>\n</tr>\n<tr>\n<td>Linux</td>\n<td><a href=\"https://dl.influxdata.com/chronograf/releases/chronograf-1.7.10_linux_arm64.tar.gz\" rel=\"nofollow\">chronograf-1.7.10_linux_arm64.tar.gz</a></td>\n<td><code>88572f1f4dbbd3ce0fd14a86ab849a9f8ef410ea934f9e696e9e79198da23730</code></td>\n</tr>\n<tr>\n<td>Linux</td>\n<td><a href=\"https://dl.influxdata.com/chronograf/releases/chronograf-1.7.10_linux_armel.tar.gz\" rel=\"nofollow\">chronograf-1.7.10_linux_armel.tar.gz</a></td>\n<td><code>c62d2a144999767926c0b2c4a72fd84572558e245d9053637f6937928028adbd</code></td>\n</tr>\n<tr>\n<td>Linux</td>\n<td><a href=\"https://dl.influxdata.com/chronograf/releases/chronograf-1.7.10_linux_armhf.tar.gz\" rel=\"nofollow\">chronograf-1.7.10_linux_armhf.tar.gz</a></td>\n<td><code>94dad06c50d5d8f4f220db20e82569fc2aad6a21c8991bb0a814ab7d61986e30</code></td>\n</tr>\n<tr>\n<td>Linux</td>\n<td><a href=\"https://dl.influxdata.com/chronograf/releases/chronograf-1.7.10_linux_i386.tar.gz\" rel=\"nofollow\">chronograf-1.7.10_linux_i386.tar.gz</a></td>\n<td><code>54d5546659e81da3c649f4299db28a19a04e501dd08d1137e24a128ae4c48a9b</code></td>\n</tr>\n<tr>\n<td>Mac OS X</td>\n<td><a href=\"https://dl.influxdata.com/chronograf/releases/chronograf-1.7.10_darwin_amd64.tar.gz\" rel=\"nofollow\">chronograf-1.7.10_darwin_amd64.tar.gz</a></td>\n<td><code>764c8b28bdaa1cee4a78fd2f491874895ebf682cc8670f8ae45ab1b48d5877fa</code></td>\n</tr>\n<tr>\n<td>Ubuntu</td>\n<td><a href=\"https://dl.influxdata.com/chronograf/releases/chronograf_1.7.10_amd64.deb\" rel=\"nofollow\">chronograf_1.7.10_amd64.deb</a></td>\n<td><code>87f53e0cfe42bb7325bdd0827045d65ca05f905779108984092241c56cc4bd07</code></td>\n</tr>\n<tr>\n<td>Ubuntu</td>\n<td><a href=\"https://dl.influxdata.com/chronograf/releases/chronograf_1.7.10_arm64.deb\" rel=\"nofollow\">chronograf_1.7.10_arm64.deb</a></td>\n<td><code>452ae08e5809f066f80885ebf6974daf2a7d33e9ca996eba37dbc571a2782746</code></td>\n</tr>\n<tr>\n<td>Ubuntu</td>\n<td><a href=\"https://dl.influxdata.com/chronograf/releases/chronograf_1.7.10_armel.deb\" rel=\"nofollow\">chronograf_1.7.10_armel.deb</a></td>\n<td><code>533ce0e6b40b13ad34c42d11a7a99bcf4abd8ca4bf5f968337267c3c38223158</code></td>\n</tr>\n<tr>\n<td>Ubuntu</td>\n<td><a href=\"https://dl.influxdata.com/chronograf/releases/chronograf_1.7.10_armhf.deb\" rel=\"nofollow\">chronograf_1.7.10_armhf.deb</a></td>\n<td><code>9d3f3cc8d616e15f10ed8375fe498bd1e514f9f1285d20c49b84663c402dd355</code></td>\n</tr>\n<tr>\n<td>Ubuntu</td>\n<td><a href=\"https://dl.influxdata.com/chronograf/releases/chronograf_1.7.10_i386.deb\" rel=\"nofollow\">chronograf_1.7.10_i386.deb</a></td>\n<td><code>063bcec7e34c4f92360de6da31e478a1a26ecd70ac6bc12be332069ce274a96d</code></td>\n</tr>\n<tr>\n<td>Windows</td>\n<td><a href=\"https://dl.influxdata.com/chronograf/releases/chronograf-1.7.10_windows_amd64.zip\" rel=\"nofollow\">chronograf-1.7.10_windows_amd64.zip</a></td>\n<td><code>c09043579b9cddfa82c1ff8d532cd63e82431062ac6b85e96cb1fbfd1308afdb</code></td>\n</tr>\n</tbody>\n</table>",
      "date_published": "2019-04-17T01:12:41.000Z",
      "author": {
        "name": "bthesorceror"
      }
    },
    {
      "guid": "tag:github.com,2008:Repository/66506962/1.7.9",
      "url": "https://github.com/influxdata/chronograf/releases/tag/1.7.9",
      "title": "1.7.9",
      "content_html": "<h2>v1.7.9</h2>\n<h3>Bug Fixes</h3>\n<ol>\n<li><a href=\"https://github.com/influxdata/chronograf/pull/5110\" data-hovercard-type=\"pull_request\" data-hovercard-url=\"/influxdata/chronograf/pull/5110/hovercard\">#5110</a>: Fix the input for line controls in visualization options.</li>\n<li><a href=\"https://github.com/influxdata/chronograf/pull/5111\" data-hovercard-type=\"pull_request\" data-hovercard-url=\"/influxdata/chronograf/pull/5111/hovercard\">#5111</a>: Stop scrollbars from covering text in flux editor</li>\n<li><a href=\"https://github.com/influxdata/chronograf/pull/5114\" data-hovercard-type=\"pull_request\" data-hovercard-url=\"/influxdata/chronograf/pull/5114/hovercard\">#5114</a>: Insert flux function near cursor in flux editor</li>\n<li><a href=\"https://github.com/influxdata/chronograf/pull/5118\" data-hovercard-type=\"pull_request\" data-hovercard-url=\"/influxdata/chronograf/pull/5118/hovercard\">#5118</a>: Fix double quoting of map template values</li>\n<li><a href=\"https://github.com/influxdata/chronograf/pull/5128\" data-hovercard-type=\"pull_request\" data-hovercard-url=\"/influxdata/chronograf/pull/5128/hovercard\">#5128</a>: Fix disappearing data when scrolling a table</li>\n</ol>\n<h2>Docker</h2>\n<p>[DEBUG] run: git describe --always --tags --abbrev=0<br>\n<code>docker pull quay.io/influxdb/chronograf:1.7.9</code></p>\n<h2>Packages</h2>\n<table>\n<thead>\n<tr>\n<th>Platform</th>\n<th>Package</th>\n<th>SHA256</th>\n</tr>\n</thead>\n<tbody>\n<tr>\n<td>CentOS</td>\n<td><a href=\"https://dl.influxdata.com/chronograf/releases/chronograf-1.7.9.arm64.rpm\" rel=\"nofollow\">chronograf-1.7.9.arm64.rpm</a></td>\n<td><code>d8af9be8c6a56b05e8c8e094e3d176ffe88f4de9f79d035f0d203f3afd80e5b9</code></td>\n</tr>\n<tr>\n<td>CentOS</td>\n<td><a href=\"https://dl.influxdata.com/chronograf/releases/chronograf-1.7.9.armel.rpm\" rel=\"nofollow\">chronograf-1.7.9.armel.rpm</a></td>\n<td><code>6320965f482cf90b7d58bfa895c3faa99741d16eb80e58bddeb37a8e2ee17d71</code></td>\n</tr>\n<tr>\n<td>CentOS</td>\n<td><a href=\"https://dl.influxdata.com/chronograf/releases/chronograf-1.7.9.armhf.rpm\" rel=\"nofollow\">chronograf-1.7.9.armhf.rpm</a></td>\n<td><code>31bfd3004b4cc647dd38315ac94b3b70946abc94ab354861196efc95ff50e712</code></td>\n</tr>\n<tr>\n<td>CentOS</td>\n<td><a href=\"https://dl.influxdata.com/chronograf/releases/chronograf-1.7.9.i386.rpm\" rel=\"nofollow\">chronograf-1.7.9.i386.rpm</a></td>\n<td><code>4aa87246cde9b3393db4412ba075787f94698b72b5ea14a025f97b9299f61468</code></td>\n</tr>\n<tr>\n<td>CentOS</td>\n<td><a href=\"https://dl.influxdata.com/chronograf/releases/chronograf-1.7.9.x86_64.rpm\" rel=\"nofollow\">chronograf-1.7.9.x86_64.rpm</a></td>\n<td><code>cdc37bf4938effc515cb51174313873bca470d041bcda9672b33be6c89447561</code></td>\n</tr>\n<tr>\n<td>Linux Static</td>\n<td><a href=\"https://dl.influxdata.com/chronograf/releases/chronograf-1.7.9-static_linux_amd64.tar.gz\" rel=\"nofollow\">chronograf-1.7.9-static_linux_amd64.tar.gz</a></td>\n<td><code>8fc9c64c02e5dc0ad6ae543c8c0b770c98e976af7fbc39816b59cd47878abdd1</code></td>\n</tr>\n<tr>\n<td>Linux Static</td>\n<td><a href=\"https://dl.influxdata.com/chronograf/releases/chronograf-1.7.9-static_linux_i386.tar.gz\" rel=\"nofollow\">chronograf-1.7.9-static_linux_i386.tar.gz</a></td>\n<td><code>3cf166751365e91ba239f974b92a32e5800d5c87c887a2dd16b1ee43ad1b4977</code></td>\n</tr>\n<tr>\n<td>Linux</td>\n<td><a href=\"https://dl.influxdata.com/chronograf/releases/chronograf-1.7.9_linux_amd64.tar.gz\" rel=\"nofollow\">chronograf-1.7.9_linux_amd64.tar.gz</a></td>\n<td><code>bc2c179e5611089126d478b5f17aac002fa68f81287cf023823f6227b7dd70ed</code></td>\n</tr>\n<tr>\n<td>Linux</td>\n<td><a href=\"https://dl.influxdata.com/chronograf/releases/chronograf-1.7.9_linux_arm64.tar.gz\" rel=\"nofollow\">chronograf-1.7.9_linux_arm64.tar.gz</a></td>\n<td><code>3d8c6b084d51bf003348a3101ac640e6539bd58977a45351b1cf51256b1ccc3d</code></td>\n</tr>\n<tr>\n<td>Linux</td>\n<td><a href=\"https://dl.influxdata.com/chronograf/releases/chronograf-1.7.9_linux_armel.tar.gz\" rel=\"nofollow\">chronograf-1.7.9_linux_armel.tar.gz</a></td>\n<td><code>162cc2da819205b7a4e847ba7efe806a7ebd2d7a3c1cffb0498cc45ab21f54ce</code></td>\n</tr>\n<tr>\n<td>Linux</td>\n<td><a href=\"https://dl.influxdata.com/chronograf/releases/chronograf-1.7.9_linux_armhf.tar.gz\" rel=\"nofollow\">chronograf-1.7.9_linux_armhf.tar.gz</a></td>\n<td><code>5df072672f318abb081008519e086068a34cdba61fd95d6a4b9c5658f01ed369</code></td>\n</tr>\n<tr>\n<td>Linux</td>\n<td><a href=\"https://dl.influxdata.com/chronograf/releases/chronograf-1.7.9_linux_i386.tar.gz\" rel=\"nofollow\">chronograf-1.7.9_linux_i386.tar.gz</a></td>\n<td><code>eef88a17e1ced2f32505081b85d7db6e8d0935a2c5e4c5355ff45537d333e00f</code></td>\n</tr>\n<tr>\n<td>Mac OS X</td>\n<td><a href=\"https://dl.influxdata.com/chronograf/releases/chronograf-1.7.9_darwin_amd64.tar.gz\" rel=\"nofollow\">chronograf-1.7.9_darwin_amd64.tar.gz</a></td>\n<td><code>27e79f24098f2ffd453a0f06c6b287e916a94d90874893cb2452d7e4d12d2378</code></td>\n</tr>\n<tr>\n<td>Ubuntu</td>\n<td><a href=\"https://dl.influxdata.com/chronograf/releases/chronograf_1.7.9_amd64.deb\" rel=\"nofollow\">chronograf_1.7.9_amd64.deb</a></td>\n<td><code>4ed978be030b06e00a1439d8a73a3d41889e6a0f94520d64c8be6e083011fc89</code></td>\n</tr>\n<tr>\n<td>Ubuntu</td>\n<td><a href=\"https://dl.influxdata.com/chronograf/releases/chronograf_1.7.9_arm64.deb\" rel=\"nofollow\">chronograf_1.7.9_arm64.deb</a></td>\n<td><code>912ec4627a1d64dce28de7dab811ea6edf4fa060ea5a98cef072efdf44700584</code></td>\n</tr>\n<tr>\n<td>Ubuntu</td>\n<td><a href=\"https://dl.influxdata.com/chronograf/releases/chronograf_1.7.9_armel.deb\" rel=\"nofollow\">chronograf_1.7.9_armel.deb</a></td>\n<td><code>84a5e9ddc444ca15d089282fad9fb7f58c1914dea26abd2b4efe1f83a51d97ff</code></td>\n</tr>\n<tr>\n<td>Ubuntu</td>\n<td><a href=\"https://dl.influxdata.com/chronograf/releases/chronograf_1.7.9_armhf.deb\" rel=\"nofollow\">chronograf_1.7.9_armhf.deb</a></td>\n<td><code>0fd2484928197702348da4f622eac6ac5d6bfafa19f49f9019219f0e772310ab</code></td>\n</tr>\n<tr>\n<td>Ubuntu</td>\n<td><a href=\"https://dl.influxdata.com/chronograf/releases/chronograf_1.7.9_i386.deb\" rel=\"nofollow\">chronograf_1.7.9_i386.deb</a></td>\n<td><code>88d11129ca761a567debe8a3414b6a01edb51e84b9a93d452e949e236e297c5b</code></td>\n</tr>\n<tr>\n<td>Windows</td>\n<td><a href=\"https://dl.influxdata.com/chronograf/releases/chronograf-1.7.9_windows_amd64.zip\" rel=\"nofollow\">chronograf-1.7.9_windows_amd64.zip</a></td>\n<td><code>fbcbdb0a765e22d2d06235d935b5dbbddc43a45b5e1488d66ee7392351889a83</code></td>\n</tr>\n</tbody>\n</table>",
      "date_published": "2019-03-20T23:20:54.000Z",
      "author": {
        "name": "bthesorceror"
      }
    },
    {
      "guid": "tag:github.com,2008:Repository/66506962/1.7.8",
      "url": "https://github.com/influxdata/chronograf/releases/tag/1.7.8",
      "title": "1.7.8",
      "content_html": "<h3>Bug Fixes</h3>\n<ol>\n<li><a href=\"https://github.com/influxdata/chronograf/pull/5068\" data-hovercard-type=\"pull_request\" data-hovercard-url=\"/influxdata/chronograf/pull/5068/hovercard\">#5068</a>: Escape injected meta query values</li>\n<li><a href=\"https://github.com/influxdata/chronograf/pull/5073\" data-hovercard-type=\"pull_request\" data-hovercard-url=\"/influxdata/chronograf/pull/5073/hovercard\">#5073</a>: Fix out of range decimal places</li>\n<li><a href=\"https://github.com/influxdata/chronograf/pull/5076\" data-hovercard-type=\"pull_request\" data-hovercard-url=\"/influxdata/chronograf/pull/5076/hovercard\">#5076</a>: Stop raw yaxis format from getting updated to 10</li>\n<li><a href=\"https://github.com/influxdata/chronograf/pull/5077\" data-hovercard-type=\"pull_request\" data-hovercard-url=\"/influxdata/chronograf/pull/5077/hovercard\">#5077</a>: Correct autoInterval calculations</li>\n<li><a href=\"https://github.com/influxdata/chronograf/pull/5079\" data-hovercard-type=\"pull_request\" data-hovercard-url=\"/influxdata/chronograf/pull/5079/hovercard\">#5079</a>: Fix multiple organizations not showing configured kapacitors</li>\n<li><a href=\"https://github.com/influxdata/chronograf/pull/5078\" data-hovercard-type=\"pull_request\" data-hovercard-url=\"/influxdata/chronograf/pull/5078/hovercard\">#5078</a>: Fix the inability to edit kapacitor info in the onboarding wizard</li>\n<li><a href=\"https://github.com/influxdata/chronograf/pull/5083\" data-hovercard-type=\"pull_request\" data-hovercard-url=\"/influxdata/chronograf/pull/5083/hovercard\">#5083</a>: Fix the column names in the Window function example</li>\n</ol>\n<h2>Docker</h2>\n<p><code>docker pull quay.io/influxdb/chronograf:1.7.8</code></p>\n<h2>Packages</h2>\n<table>\n<thead>\n<tr>\n<th>Platform</th>\n<th>Package</th>\n<th>SHA256</th>\n</tr>\n</thead>\n<tbody>\n<tr>\n<td>CentOS</td>\n<td><a href=\"https://dl.influxdata.com/chronograf/releases/chronograf-1.7.8.arm64.rpm\" rel=\"nofollow\">chronograf-1.7.8.arm64.rpm</a></td>\n<td><code>d4487028200b63ab20520c6053fa4ab4aeb0f2bba0ded8a5395bc70d1a67965e</code></td>\n</tr>\n<tr>\n<td>CentOS</td>\n<td><a href=\"https://dl.influxdata.com/chronograf/releases/chronograf-1.7.8.armel.rpm\" rel=\"nofollow\">chronograf-1.7.8.armel.rpm</a></td>\n<td><code>e60c0f0b371fe858f2303c2d2110d1d0a3cbed9510407711003ba4a91b8a621d</code></td>\n</tr>\n<tr>\n<td>CentOS</td>\n<td><a href=\"https://dl.influxdata.com/chronograf/releases/chronograf-1.7.8.armhf.rpm\" rel=\"nofollow\">chronograf-1.7.8.armhf.rpm</a></td>\n<td><code>1ba9ccba5f667ec93f1ecc92001d039bb1148681f088bd28bd8d638baffee450</code></td>\n</tr>\n<tr>\n<td>CentOS</td>\n<td><a href=\"https://dl.influxdata.com/chronograf/releases/chronograf-1.7.8.i386.rpm\" rel=\"nofollow\">chronograf-1.7.8.i386.rpm</a></td>\n<td><code>0bc812fabc341aa92f7ab29dc3b43383d1629b12c4b0f15690aa4f58d248084e</code></td>\n</tr>\n<tr>\n<td>CentOS</td>\n<td><a href=\"https://dl.influxdata.com/chronograf/releases/chronograf-1.7.8.x86_64.rpm\" rel=\"nofollow\">chronograf-1.7.8.x86_64.rpm</a></td>\n<td><code>f6d7465f582db96d8da4a721bbe9f2285c5a1823dd7e9814da1bfd5f91983bff</code></td>\n</tr>\n<tr>\n<td>Linux Static</td>\n<td><a href=\"https://dl.influxdata.com/chronograf/releases/chronograf-1.7.8-static_linux_amd64.tar.gz\" rel=\"nofollow\">chronograf-1.7.8-static_linux_amd64.tar.gz</a></td>\n<td><code>275829f38b631e550c618b285f9cc41cad0bcb774e271123964835cf8ba2de70</code></td>\n</tr>\n<tr>\n<td>Linux Static</td>\n<td><a href=\"https://dl.influxdata.com/chronograf/releases/chronograf-1.7.8-static_linux_i386.tar.gz\" rel=\"nofollow\">chronograf-1.7.8-static_linux_i386.tar.gz</a></td>\n<td><code>22af50204aa1b3cbe49aae434b90932a8ce31d88895ab44cbfadc1873e77c24e</code></td>\n</tr>\n<tr>\n<td>Linux</td>\n<td><a href=\"https://dl.influxdata.com/chronograf/releases/chronograf-1.7.8_linux_amd64.tar.gz\" rel=\"nofollow\">chronograf-1.7.8_linux_amd64.tar.gz</a></td>\n<td><code>cab0aecc759802a42dfdbcbb0933c1f2d68eb55bcab43ff6c16f0362b362e487</code></td>\n</tr>\n<tr>\n<td>Linux</td>\n<td><a href=\"https://dl.influxdata.com/chronograf/releases/chronograf-1.7.8_linux_arm64.tar.gz\" rel=\"nofollow\">chronograf-1.7.8_linux_arm64.tar.gz</a></td>\n<td><code>fa6dedf9dd95cbcaa1bf3520695def08ef947c815c3ecc22fd68f03358bce920</code></td>\n</tr>\n<tr>\n<td>Linux</td>\n<td><a href=\"https://dl.influxdata.com/chronograf/releases/chronograf-1.7.8_linux_armel.tar.gz\" rel=\"nofollow\">chronograf-1.7.8_linux_armel.tar.gz</a></td>\n<td><code>47857492d69a37b7db9305737c5722c5925cca4721b6955be7cc543eba3a3b30</code></td>\n</tr>\n<tr>\n<td>Linux</td>\n<td><a href=\"https://dl.influxdata.com/chronograf/releases/chronograf-1.7.8_linux_armhf.tar.gz\" rel=\"nofollow\">chronograf-1.7.8_linux_armhf.tar.gz</a></td>\n<td><code>696e6080eb22bfbfe281071debe2a035f94e160b39ee2b1ac07ff259dfdcce9e</code></td>\n</tr>\n<tr>\n<td>Linux</td>\n<td><a href=\"https://dl.influxdata.com/chronograf/releases/chronograf-1.7.8_linux_i386.tar.gz\" rel=\"nofollow\">chronograf-1.7.8_linux_i386.tar.gz</a></td>\n<td><code>161115e78b0950c4ebd9f5998c0e484db3d05ce15aa9e0ebbc3d89fdd3762d2a</code></td>\n</tr>\n<tr>\n<td>Mac OS X</td>\n<td><a href=\"https://dl.influxdata.com/chronograf/releases/chronograf-1.7.8_darwin_amd64.tar.gz\" rel=\"nofollow\">chronograf-1.7.8_darwin_amd64.tar.gz</a></td>\n<td><code>7eec4aa815b716963a6ae94797adcf1ec88f537a383989cbe66f7dd492629eb1</code></td>\n</tr>\n<tr>\n<td>Ubuntu</td>\n<td><a href=\"https://dl.influxdata.com/chronograf/releases/chronograf_1.7.8_amd64.deb\" rel=\"nofollow\">chronograf_1.7.8_amd64.deb</a></td>\n<td><code>bd04852311e41165232fe4ef804dc51044584de77ed5bc268160eb1465921caa</code></td>\n</tr>\n<tr>\n<td>Ubuntu</td>\n<td><a href=\"https://dl.influxdata.com/chronograf/releases/chronograf_1.7.8_arm64.deb\" rel=\"nofollow\">chronograf_1.7.8_arm64.deb</a></td>\n<td><code>e2282b4f39f0b3e2eb1e8c7bf4bb26743e7237f17bbe89a9c45da8e6561a5a82</code></td>\n</tr>\n<tr>\n<td>Ubuntu</td>\n<td><a href=\"https://dl.influxdata.com/chronograf/releases/chronograf_1.7.8_armel.deb\" rel=\"nofollow\">chronograf_1.7.8_armel.deb</a></td>\n<td><code>3451871d2d5acf432ca64c488c19dc94d88ba435ca5fb8421d74e18271687bab</code></td>\n</tr>\n<tr>\n<td>Ubuntu</td>\n<td><a href=\"https://dl.influxdata.com/chronograf/releases/chronograf_1.7.8_armhf.deb\" rel=\"nofollow\">chronograf_1.7.8_armhf.deb</a></td>\n<td><code>87d988fd27aa151f61bae46da4ecb28b6f79c538f568ca1761bda94b74767b84</code></td>\n</tr>\n<tr>\n<td>Ubuntu</td>\n<td><a href=\"https://dl.influxdata.com/chronograf/releases/chronograf_1.7.8_i386.deb\" rel=\"nofollow\">chronograf_1.7.8_i386.deb</a></td>\n<td><code>49de760840e9e5cb1b7720c915c9118ea7490078ccf9ee2ac37e660de32401e9</code></td>\n</tr>\n<tr>\n<td>Windows</td>\n<td><a href=\"https://dl.influxdata.com/chronograf/releases/chronograf-1.7.8_windows_amd64.zip\" rel=\"nofollow\">chronograf-1.7.8_windows_amd64.zip</a></td>\n<td><code>ba39fc3a4e3375c8a52449f5607dccea309cb1244f445a3c68595a7ec1138e31</code></td>\n</tr>\n</tbody>\n</table>",
      "date_published": "2019-02-13T22:26:12.000Z",
      "author": {
        "name": "bthesorceror"
      }
    },
    {
      "guid": "tag:github.com,2008:Repository/66506962/1.7.7",
      "url": "https://github.com/influxdata/chronograf/releases/tag/1.7.7",
      "title": "1.7.7",
      "content_html": "<h2>v1.7.7 [2018-01-16]</h2>\n<h3>Bug Fixes</h3>\n<ol>\n<li><a href=\"https://github.com/influxdata/chronograf/pull/5045\" data-hovercard-type=\"pull_request\" data-hovercard-url=\"/influxdata/chronograf/pull/5045/hovercard\">#5045</a>: Use JWT in enterprise for authentication in flux</li>\n</ol>\n<h2>Docker</h2>\n<p><code>docker pull quay.io/influxdb/chronograf:1.7.7</code></p>\n<h2>Packages</h2>\n<table>\n<thead>\n<tr>\n<th>Platform</th>\n<th>Package</th>\n<th>SHA256</th>\n</tr>\n</thead>\n<tbody>\n<tr>\n<td>CentOS</td>\n<td><a href=\"https://dl.influxdata.com/chronograf/releases/chronograf-1.7.7.arm64.rpm\" rel=\"nofollow\">chronograf-1.7.7.arm64.rpm</a></td>\n<td><code>ae03f37e18c214e66bd5f26f0331f08940333ca2ae294d7d94156f689d363875</code></td>\n</tr>\n<tr>\n<td>CentOS</td>\n<td><a href=\"https://dl.influxdata.com/chronograf/releases/chronograf-1.7.7.armel.rpm\" rel=\"nofollow\">chronograf-1.7.7.armel.rpm</a></td>\n<td><code>464259126fcff3cb00f413dcca1f08847a072642024d139bffad8e36d9e9f2c5</code></td>\n</tr>\n<tr>\n<td>CentOS</td>\n<td><a href=\"https://dl.influxdata.com/chronograf/releases/chronograf-1.7.7.armhf.rpm\" rel=\"nofollow\">chronograf-1.7.7.armhf.rpm</a></td>\n<td><code>83462a5f4bb87157b36f83cb2899eeabab2877c133a702f86dbecd5f6a628e87</code></td>\n</tr>\n<tr>\n<td>CentOS</td>\n<td><a href=\"https://dl.influxdata.com/chronograf/releases/chronograf-1.7.7.i386.rpm\" rel=\"nofollow\">chronograf-1.7.7.i386.rpm</a></td>\n<td><code>56ac7891a41385b7f047feb5c99d2ee3fdc26a89affb67005f3ea366097aaf86</code></td>\n</tr>\n<tr>\n<td>CentOS</td>\n<td><a href=\"https://dl.influxdata.com/chronograf/releases/chronograf-1.7.7.x86_64.rpm\" rel=\"nofollow\">chronograf-1.7.7.x86_64.rpm</a></td>\n<td><code>872a73bc9ad230498c045bddbbde5bff15a27b521084a90cef99f971f227f4be</code></td>\n</tr>\n<tr>\n<td>Linux Static</td>\n<td><a href=\"https://dl.influxdata.com/chronograf/releases/chronograf-1.7.7-static_linux_amd64.tar.gz\" rel=\"nofollow\">chronograf-1.7.7-static_linux_amd64.tar.gz</a></td>\n<td><code>884bd3f6e24fe377b28beb949995782f996312256e7ecc51647e7fb90d3893b2</code></td>\n</tr>\n<tr>\n<td>Linux Static</td>\n<td><a href=\"https://dl.influxdata.com/chronograf/releases/chronograf-1.7.7-static_linux_i386.tar.gz\" rel=\"nofollow\">chronograf-1.7.7-static_linux_i386.tar.gz</a></td>\n<td><code>0c716c9b59748a16fdd1f50274941c6cd74ee319172b5f65afd159a6b37d6c5e</code></td>\n</tr>\n<tr>\n<td>Linux</td>\n<td><a href=\"https://dl.influxdata.com/chronograf/releases/chronograf-1.7.7_linux_amd64.tar.gz\" rel=\"nofollow\">chronograf-1.7.7_linux_amd64.tar.gz</a></td>\n<td><code>b3627882655193d015309bf49a16c360a68d6d576697659bd30fc81a1441b673</code></td>\n</tr>\n<tr>\n<td>Linux</td>\n<td><a href=\"https://dl.influxdata.com/chronograf/releases/chronograf-1.7.7_linux_arm64.tar.gz\" rel=\"nofollow\">chronograf-1.7.7_linux_arm64.tar.gz</a></td>\n<td><code>2cf026e83c607c3d54d811eccbd23eab066114bfad935517833b42172909524a</code></td>\n</tr>\n<tr>\n<td>Linux</td>\n<td><a href=\"https://dl.influxdata.com/chronograf/releases/chronograf-1.7.7_linux_armel.tar.gz\" rel=\"nofollow\">chronograf-1.7.7_linux_armel.tar.gz</a></td>\n<td><code>6b313297543c6216df154458e0d26d4436835b3402e348db0639745fcfc85a6a</code></td>\n</tr>\n<tr>\n<td>Linux</td>\n<td><a href=\"https://dl.influxdata.com/chronograf/releases/chronograf-1.7.7_linux_armhf.tar.gz\" rel=\"nofollow\">chronograf-1.7.7_linux_armhf.tar.gz</a></td>\n<td><code>0c42703b5331363df56c86dbc667497eb3bce1007083f53fff86eb9323ad644a</code></td>\n</tr>\n<tr>\n<td>Linux</td>\n<td><a href=\"https://dl.influxdata.com/chronograf/releases/chronograf-1.7.7_linux_i386.tar.gz\" rel=\"nofollow\">chronograf-1.7.7_linux_i386.tar.gz</a></td>\n<td><code>700fff86c336a529588800bfad5170fba2aad89bd401aac077a613417f6997d3</code></td>\n</tr>\n<tr>\n<td>Mac OS X</td>\n<td><a href=\"https://dl.influxdata.com/chronograf/releases/chronograf-1.7.7_darwin_amd64.tar.gz\" rel=\"nofollow\">chronograf-1.7.7_darwin_amd64.tar.gz</a></td>\n<td><code>0f4b28a14ff8af1725cd0a55a88761b4537e29507e2a9adc81780c60a531622c</code></td>\n</tr>\n<tr>\n<td>Ubuntu</td>\n<td><a href=\"https://dl.influxdata.com/chronograf/releases/chronograf_1.7.7_amd64.deb\" rel=\"nofollow\">chronograf_1.7.7_amd64.deb</a></td>\n<td><code>20c116fe1dea5880d910df42510d8e5d5399c847c57edaa9374fb5558dead2fe</code></td>\n</tr>\n<tr>\n<td>Ubuntu</td>\n<td><a href=\"https://dl.influxdata.com/chronograf/releases/chronograf_1.7.7_arm64.deb\" rel=\"nofollow\">chronograf_1.7.7_arm64.deb</a></td>\n<td><code>92f5f2afc52e11b9fa576f8fbd6c7cb7fd38c1487f501cf2f345b5ff9b28b36e</code></td>\n</tr>\n<tr>\n<td>Ubuntu</td>\n<td><a href=\"https://dl.influxdata.com/chronograf/releases/chronograf_1.7.7_armel.deb\" rel=\"nofollow\">chronograf_1.7.7_armel.deb</a></td>\n<td><code>912acd105687062a77674b1f36678a2c77fea33f08664ea964d5065ba9e38578</code></td>\n</tr>\n<tr>\n<td>Ubuntu</td>\n<td><a href=\"https://dl.influxdata.com/chronograf/releases/chronograf_1.7.7_armhf.deb\" rel=\"nofollow\">chronograf_1.7.7_armhf.deb</a></td>\n<td><code>63a0a58e6f916ebd613869fa5381c1306763ff54a6a718a794c03ee0a25dfef9</code></td>\n</tr>\n<tr>\n<td>Ubuntu</td>\n<td><a href=\"https://dl.influxdata.com/chronograf/releases/chronograf_1.7.7_i386.deb\" rel=\"nofollow\">chronograf_1.7.7_i386.deb</a></td>\n<td><code>494ec13b05b6f847d9e504c9b3b76728bd1e8cf3eb1ec53a3c1e0f1f0b60db4f</code></td>\n</tr>\n<tr>\n<td>Windows</td>\n<td><a href=\"https://dl.influxdata.com/chronograf/releases/chronograf-1.7.7_windows_amd64.zip\" rel=\"nofollow\">chronograf-1.7.7_windows_amd64.zip</a></td>\n<td><code>06f8dbe116071cda01826540872c75b8d5e273e42f25bb31d9e08b02dc2fef6f</code></td>\n</tr>\n</tbody>\n</table>",
      "date_published": "2019-01-16T22:10:19.000Z",
      "author": {
        "name": "nhaugo"
      }
    },
    {
      "guid": "tag:github.com,2008:Repository/66506962/1.7.6",
      "url": "https://github.com/influxdata/chronograf/releases/tag/1.7.6",
      "title": "1.7.6",
      "content_html": "<h3>Bug Fixes</h3>\n<ol>\n<li><a href=\"https://github.com/influxdata/chronograf/pull/4895\" data-hovercard-type=\"pull_request\" data-hovercard-url=\"/influxdata/chronograf/pull/4895/hovercard\">#4895</a>: Properly set scroll to row for table graph</li>\n<li><a href=\"https://github.com/influxdata/chronograf/pull/4906\" data-hovercard-type=\"pull_request\" data-hovercard-url=\"/influxdata/chronograf/pull/4906/hovercard\">#4906</a>: Prevent Kapacitor URLs from being overwritten in Connection Wizard.</li>\n<li><a href=\"https://github.com/influxdata/chronograf/pull/4909\" data-hovercard-type=\"pull_request\" data-hovercard-url=\"/influxdata/chronograf/pull/4909/hovercard\">#4862</a>: Fix logs intermitently show empty on first load</li>\n<li><a href=\"https://github.com/influxdata/chronograf/pull/5034\" data-hovercard-type=\"pull_request\" data-hovercard-url=\"/influxdata/chronograf/pull/5034/hovercard\">#5034</a>: Prevent meta node URLs from being overwritten in Connection Wizard.</li>\n<li><a href=\"https://github.com/influxdata/chronograf/pull/5035\" data-hovercard-type=\"pull_request\" data-hovercard-url=\"/influxdata/chronograf/pull/5035/hovercard\">#5035</a>: Update functions list for Flux 0.12</li>\n</ol>\n<h2>Docker</h2>\n<p><code>docker pull quay.io/influxdb/chronograf:1.7.6</code></p>\n<h2>Packages</h2>\n<table>\n<thead>\n<tr>\n<th>Platform</th>\n<th>Package</th>\n<th>SHA256</th>\n</tr>\n</thead>\n<tbody>\n<tr>\n<td>CentOS</td>\n<td><a href=\"https://dl.influxdata.com/chronograf/releases/chronograf-1.7.6.arm64.rpm\" rel=\"nofollow\">chronograf-1.7.6.arm64.rpm</a></td>\n<td><code>d27a1b7b022a3529fdc23ec0314abe0f655cb63c0c63bc081f42ecf8489828a8</code></td>\n</tr>\n<tr>\n<td>CentOS</td>\n<td><a href=\"https://dl.influxdata.com/chronograf/releases/chronograf-1.7.6.armel.rpm\" rel=\"nofollow\">chronograf-1.7.6.armel.rpm</a></td>\n<td><code>ccb63d2f8b65e96c29f0a600aed46be5052e7ea006929ebd60f63a9e3dcef034</code></td>\n</tr>\n<tr>\n<td>CentOS</td>\n<td><a href=\"https://dl.influxdata.com/chronograf/releases/chronograf-1.7.6.armhf.rpm\" rel=\"nofollow\">chronograf-1.7.6.armhf.rpm</a></td>\n<td><code>9cad2d87ab8a4147a2e4c2354309057f5f70525ec8b427561dc40cc5eba4f66b</code></td>\n</tr>\n<tr>\n<td>CentOS</td>\n<td><a href=\"https://dl.influxdata.com/chronograf/releases/chronograf-1.7.6.i386.rpm\" rel=\"nofollow\">chronograf-1.7.6.i386.rpm</a></td>\n<td><code>55a98318d22a54fe2e0869d786b6a1bbd82780952f0b75db696877ca951a155b</code></td>\n</tr>\n<tr>\n<td>CentOS</td>\n<td><a href=\"https://dl.influxdata.com/chronograf/releases/chronograf-1.7.6.x86_64.rpm\" rel=\"nofollow\">chronograf-1.7.6.x86_64.rpm</a></td>\n<td><code>3e5850c4adc5cb83c425befcb4ef137956697bbf140bf705e8a6f2e8900a308b</code></td>\n</tr>\n<tr>\n<td>Linux Static</td>\n<td><a href=\"https://dl.influxdata.com/chronograf/releases/chronograf-1.7.6-static_linux_amd64.tar.gz\" rel=\"nofollow\">chronograf-1.7.6-static_linux_amd64.tar.gz</a></td>\n<td><code>93a7c0db41e9015d7cf88cc5a44db292fa2b2cb640b8cc5b936bc8aa90763b1a</code></td>\n</tr>\n<tr>\n<td>Linux Static</td>\n<td><a href=\"https://dl.influxdata.com/chronograf/releases/chronograf-1.7.6-static_linux_i386.tar.gz\" rel=\"nofollow\">chronograf-1.7.6-static_linux_i386.tar.gz</a></td>\n<td><code>dac4ffb10c279c4219199f126bf0ae23b966425842c08229e79532138cbed670</code></td>\n</tr>\n<tr>\n<td>Linux</td>\n<td><a href=\"https://dl.influxdata.com/chronograf/releases/chronograf-1.7.6_linux_amd64.tar.gz\" rel=\"nofollow\">chronograf-1.7.6_linux_amd64.tar.gz</a></td>\n<td><code>69e75a05d783d88219531bf782cb184f72191dfd0ae2dbf466f31c3bce3a0ed6</code></td>\n</tr>\n<tr>\n<td>Linux</td>\n<td><a href=\"https://dl.influxdata.com/chronograf/releases/chronograf-1.7.6_linux_arm64.tar.gz\" rel=\"nofollow\">chronograf-1.7.6_linux_arm64.tar.gz</a></td>\n<td><code>aab804afcef742332b19e9f4fe99dfd377e58d0e9a677a3379dac5afcef751ca</code></td>\n</tr>\n<tr>\n<td>Linux</td>\n<td><a href=\"https://dl.influxdata.com/chronograf/releases/chronograf-1.7.6_linux_armel.tar.gz\" rel=\"nofollow\">chronograf-1.7.6_linux_armel.tar.gz</a></td>\n<td><code>a4ad3cbb251450f7de83d14f9dcf1d0a71c95eb4ae415fcd1dd6fec367d69972</code></td>\n</tr>\n<tr>\n<td>Linux</td>\n<td><a href=\"https://dl.influxdata.com/chronograf/releases/chronograf-1.7.6_linux_armhf.tar.gz\" rel=\"nofollow\">chronograf-1.7.6_linux_armhf.tar.gz</a></td>\n<td><code>cfa5b8cc424045264ec8f349029c9042f732fa328b1ddd420aeb154907bad6ac</code></td>\n</tr>\n<tr>\n<td>Linux</td>\n<td><a href=\"https://dl.influxdata.com/chronograf/releases/chronograf-1.7.6_linux_i386.tar.gz\" rel=\"nofollow\">chronograf-1.7.6_linux_i386.tar.gz</a></td>\n<td><code>43629452ae4faea7489259ad385194a38b12c5314cf6786dc2bca8ba80478f7b</code></td>\n</tr>\n<tr>\n<td>Mac OS X</td>\n<td><a href=\"https://dl.influxdata.com/chronograf/releases/chronograf-1.7.6_darwin_amd64.tar.gz\" rel=\"nofollow\">chronograf-1.7.6_darwin_amd64.tar.gz</a></td>\n<td><code>178bbb27bfe14208668ceb4fa4b755905f5aa2172fcdf343448fc9a5c8cef2a7</code></td>\n</tr>\n<tr>\n<td>Ubuntu</td>\n<td><a href=\"https://dl.influxdata.com/chronograf/releases/chronograf_1.7.6_amd64.deb\" rel=\"nofollow\">chronograf_1.7.6_amd64.deb</a></td>\n<td><code>d1de03dcd3c999b0a6ef49aa93f2e09d11e8a8a7134fe907a188ca24fcc2c7c6</code></td>\n</tr>\n<tr>\n<td>Ubuntu</td>\n<td><a href=\"https://dl.influxdata.com/chronograf/releases/chronograf_1.7.6_arm64.deb\" rel=\"nofollow\">chronograf_1.7.6_arm64.deb</a></td>\n<td><code>abae2191be7a55de194727fd7f7db0b794251a6944a1766ac79a04f4d98a1818</code></td>\n</tr>\n<tr>\n<td>Ubuntu</td>\n<td><a href=\"https://dl.influxdata.com/chronograf/releases/chronograf_1.7.6_armel.deb\" rel=\"nofollow\">chronograf_1.7.6_armel.deb</a></td>\n<td><code>8b62338b631d04f2657dc97b9f445c5668ca52aeb530bb43ed3596e6d606d4f3</code></td>\n</tr>\n<tr>\n<td>Ubuntu</td>\n<td><a href=\"https://dl.influxdata.com/chronograf/releases/chronograf_1.7.6_armhf.deb\" rel=\"nofollow\">chronograf_1.7.6_armhf.deb</a></td>\n<td><code>3bd2476b20c37f545a255e57dea6ae0481301b2655134beac7a66127cebc8233</code></td>\n</tr>\n<tr>\n<td>Ubuntu</td>\n<td><a href=\"https://dl.influxdata.com/chronograf/releases/chronograf_1.7.6_i386.deb\" rel=\"nofollow\">chronograf_1.7.6_i386.deb</a></td>\n<td><code>51d47d0f355899526a0974c490cd47aca33c7ffcf228b88ad33111447fbe250c</code></td>\n</tr>\n<tr>\n<td>Windows</td>\n<td><a href=\"https://dl.influxdata.com/chronograf/releases/chronograf-1.7.6_windows_amd64.zip\" rel=\"nofollow\">chronograf-1.7.6_windows_amd64.zip</a></td>\n<td><code>4952ce54042a27cd15c9e39ab6ede64d65ad25dc9038e0120c6e8134ef4983c1</code></td>\n</tr>\n</tbody>\n</table>",
      "date_published": "2019-01-15T01:10:48.000Z",
      "author": {
        "name": "nhaugo"
      }
    },
    {
      "guid": "tag:github.com,2008:Repository/66506962/1.7.5",
      "url": "https://github.com/influxdata/chronograf/releases/tag/1.7.5",
      "title": "1.7.5",
      "content_html": "<h2>v1.7.5 [2018-12-14]</h2>\n<h3>Bug Fixes</h3>\n<ol>\n<li><a href=\"https://github.com/influxdata/chronograf/pull/4886\" data-hovercard-type=\"pull_request\" data-hovercard-url=\"/influxdata/chronograf/pull/4886/hovercard\">4886</a>: Update go, node, and alpine versions</li>\n</ol>\n<h2>Docker</h2>\n<p><code>docker pull quay.io/influxdb/chronograf:1.7.5</code></p>\n<h2>Packages</h2>\n<table>\n<thead>\n<tr>\n<th>Platform</th>\n<th>Package</th>\n<th>SHA256</th>\n</tr>\n</thead>\n<tbody>\n<tr>\n<td>CentOS</td>\n<td><a href=\"https://dl.influxdata.com/chronograf/releases/chronograf-1.7.5.arm64.rpm\" rel=\"nofollow\">chronograf-1.7.5.arm64.rpm</a></td>\n<td><code>d002d86aae16422b084f4307acbf995be18d96f1a0548b3f11cb105cb2684ca4</code></td>\n</tr>\n<tr>\n<td>CentOS</td>\n<td><a href=\"https://dl.influxdata.com/chronograf/releases/chronograf-1.7.5.armel.rpm\" rel=\"nofollow\">chronograf-1.7.5.armel.rpm</a></td>\n<td><code>c8168d4f42b186f367442b72097f64ec1c94da6c11604a705889fbc2e50eff61</code></td>\n</tr>\n<tr>\n<td>CentOS</td>\n<td><a href=\"https://dl.influxdata.com/chronograf/releases/chronograf-1.7.5.armhf.rpm\" rel=\"nofollow\">chronograf-1.7.5.armhf.rpm</a></td>\n<td><code>64e5391b00ce65f300f11c9602d3770950bbac421e069bcb6c437df4c87ec8fd</code></td>\n</tr>\n<tr>\n<td>CentOS</td>\n<td><a href=\"https://dl.influxdata.com/chronograf/releases/chronograf-1.7.5.i386.rpm\" rel=\"nofollow\">chronograf-1.7.5.i386.rpm</a></td>\n<td><code>3e6f0627d34405f6e897bc2f967351ebf45cec6e8342510d176101b661eaf5ac</code></td>\n</tr>\n<tr>\n<td>CentOS</td>\n<td><a href=\"https://dl.influxdata.com/chronograf/releases/chronograf-1.7.5.x86_64.rpm\" rel=\"nofollow\">chronograf-1.7.5.x86_64.rpm</a></td>\n<td><code>188bf882b0da4f4786df40387266060d8db066ca94bac1a2acef1c2ae86ad34e</code></td>\n</tr>\n<tr>\n<td>Linux Static</td>\n<td><a href=\"https://dl.influxdata.com/chronograf/releases/chronograf-1.7.5-static_linux_amd64.tar.gz\" rel=\"nofollow\">chronograf-1.7.5-static_linux_amd64.tar.gz</a></td>\n<td><code>96039a270139c0cfbf5c0dc2dedbd2df2715da734f4144de0c4c922c6f27f297</code></td>\n</tr>\n<tr>\n<td>Linux Static</td>\n<td><a href=\"https://dl.influxdata.com/chronograf/releases/chronograf-1.7.5-static_linux_i386.tar.gz\" rel=\"nofollow\">chronograf-1.7.5-static_linux_i386.tar.gz</a></td>\n<td><code>94ac012a93a5f5aa0b2b51a5caa78626a449721217c28c33a7118160344e6a97</code></td>\n</tr>\n<tr>\n<td>Linux</td>\n<td><a href=\"https://dl.influxdata.com/chronograf/releases/chronograf-1.7.5_linux_amd64.tar.gz\" rel=\"nofollow\">chronograf-1.7.5_linux_amd64.tar.gz</a></td>\n<td><code>fe897727dcd9f98437473c7a837c11175b2e83c119968a798d19a382228e9db9</code></td>\n</tr>\n<tr>\n<td>Linux</td>\n<td><a href=\"https://dl.influxdata.com/chronograf/releases/chronograf-1.7.5_linux_arm64.tar.gz\" rel=\"nofollow\">chronograf-1.7.5_linux_arm64.tar.gz</a></td>\n<td><code>fdace778cad661a99e84c1db5545fb317edfac1000e763e51d35e31b91a298d0</code></td>\n</tr>\n<tr>\n<td>Linux</td>\n<td><a href=\"https://dl.influxdata.com/chronograf/releases/chronograf-1.7.5_linux_armel.tar.gz\" rel=\"nofollow\">chronograf-1.7.5_linux_armel.tar.gz</a></td>\n<td><code>9df7fd3e06c4fa175eb2205c4efb803261f6cc33ff31821291a52766ab6ba9d7</code></td>\n</tr>\n<tr>\n<td>Linux</td>\n<td><a href=\"https://dl.influxdata.com/chronograf/releases/chronograf-1.7.5_linux_armhf.tar.gz\" rel=\"nofollow\">chronograf-1.7.5_linux_armhf.tar.gz</a></td>\n<td><code>b4e8181da8531de19efd3a58e7b655715af8ef4d9c20c4d3b322150173afcfd0</code></td>\n</tr>\n<tr>\n<td>Linux</td>\n<td><a href=\"https://dl.influxdata.com/chronograf/releases/chronograf-1.7.5_linux_i386.tar.gz\" rel=\"nofollow\">chronograf-1.7.5_linux_i386.tar.gz</a></td>\n<td><code>d0cdc196900cb9867966876874cd1e8daa7a249ba0d8916fcdb8537fab12add6</code></td>\n</tr>\n<tr>\n<td>Mac OS X</td>\n<td><a href=\"https://dl.influxdata.com/chronograf/releases/chronograf-1.7.5_darwin_amd64.tar.gz\" rel=\"nofollow\">chronograf-1.7.5_darwin_amd64.tar.gz</a></td>\n<td><code>76e6714b16e2a5665a1432780786ea59ebb2cd67a99160e52eac7969808c1880</code></td>\n</tr>\n<tr>\n<td>Ubuntu</td>\n<td><a href=\"https://dl.influxdata.com/chronograf/releases/chronograf_1.7.5_amd64.deb\" rel=\"nofollow\">chronograf_1.7.5_amd64.deb</a></td>\n<td><code>41957fea7266e2827d1e569ae0feb35dbe73bf6df34e5b3bf130eda3428bbcbb</code></td>\n</tr>\n<tr>\n<td>Ubuntu</td>\n<td><a href=\"https://dl.influxdata.com/chronograf/releases/chronograf_1.7.5_arm64.deb\" rel=\"nofollow\">chronograf_1.7.5_arm64.deb</a></td>\n<td><code>0a428832c834fae9b330861993377e076a343b36d3cc2550e264d6362ff43541</code></td>\n</tr>\n<tr>\n<td>Ubuntu</td>\n<td><a href=\"https://dl.influxdata.com/chronograf/releases/chronograf_1.7.5_armel.deb\" rel=\"nofollow\">chronograf_1.7.5_armel.deb</a></td>\n<td><code>6d74f40489852b2632e76f87edce536528638a70b6788eaa5ba0d2520eea41b2</code></td>\n</tr>\n<tr>\n<td>Ubuntu</td>\n<td><a href=\"https://dl.influxdata.com/chronograf/releases/chronograf_1.7.5_armhf.deb\" rel=\"nofollow\">chronograf_1.7.5_armhf.deb</a></td>\n<td><code>8fc13a3e2fc3d0fec321465158ceacc018e94f4b5e4784e3b40a3497fb541fe0</code></td>\n</tr>\n<tr>\n<td>Ubuntu</td>\n<td><a href=\"https://dl.influxdata.com/chronograf/releases/chronograf_1.7.5_i386.deb\" rel=\"nofollow\">chronograf_1.7.5_i386.deb</a></td>\n<td><code>0ea1bd844f51e7af7ce33058842f756fe8bbb2e4226997c86ab029e7ee9d35c9</code></td>\n</tr>\n<tr>\n<td>Windows</td>\n<td><a href=\"https://dl.influxdata.com/chronograf/releases/chronograf-1.7.5_windows_amd64.zip\" rel=\"nofollow\">chronograf-1.7.5_windows_amd64.zip</a></td>\n<td><code>4f08f85295a7cc9c5e402d981f8fc804391bcb34961dbdf688dd4b3251ea3d7e</code></td>\n</tr>\n</tbody>\n</table>",
      "date_published": "2018-12-14T23:40:33.000Z",
      "author": {
        "name": "nhaugo"
      }
    }
  ]
}