{
  "version": "https://jsonfeed.org/version/1",
  "title": "Release notes from haproxy_exporter",
  "home_page_url": "https://github.com/prometheus/haproxy_exporter/releases",
  "items": [
    {
      "guid": "tag:github.com,2008:Repository/7939398/v0.10.0",
      "url": "https://github.com/prometheus/haproxy_exporter/releases/tag/v0.10.0",
      "title": "0.10.0 / 2019-01-15",
      "content_html": "<ul>\n<li>[ENHANCEMENT] Convert metrics collection to Const metrics <a class=\"issue-link js-issue-link\" data-error-text=\"Failed to load issue title\" data-id=\"388056925\" data-permission-text=\"Issue title is private\" data-url=\"https://github.com/prometheus/haproxy_exporter/issues/139\" data-hovercard-type=\"pull_request\" data-hovercard-url=\"/prometheus/haproxy_exporter/pull/139/hovercard\" href=\"https://github.com/prometheus/haproxy_exporter/pull/139\">#139</a></li>\n<li>[BUGFIX] Fix silent dropping of metrics for older versions of haproxy <a class=\"issue-link js-issue-link\" data-error-text=\"Failed to load issue title\" data-id=\"388056925\" data-permission-text=\"Issue title is private\" data-url=\"https://github.com/prometheus/haproxy_exporter/issues/139\" data-hovercard-type=\"pull_request\" data-hovercard-url=\"/prometheus/haproxy_exporter/pull/139/hovercard\" href=\"https://github.com/prometheus/haproxy_exporter/pull/139\">#139</a></li>\n</ul>",
      "date_published": "2019-01-15T11:19:29.000Z",
      "author": {
        "name": "SuperQ"
      }
    },
    {
      "guid": "tag:github.com,2008:Repository/7939398/v0.9.0",
      "url": "https://github.com/prometheus/haproxy_exporter/releases/tag/v0.9.0",
      "title": "0.9.0 / 2018-01-23",
      "content_html": "<ul>\n<li>[CHANGE] Rename <code>*_connections_total</code> to <code>*_sessions_total</code> following the changes in HAProxy 1.7</li>\n<li>[ENHANCEMENT] Add new <code>haproxy_server_connections_total</code> metric</li>\n<li>[ENHANCEMENT] Add new <code>--haproxy.ssl-verify</code> flag</li>\n<li>[BUGFIX] Convert latency metrics to correct unit.</li>\n</ul>",
      "date_published": "2018-01-23T18:48:20.000Z",
      "author": {
        "name": "grobie"
      }
    },
    {
      "guid": "tag:github.com,2008:Repository/7939398/v0.8.0",
      "url": "https://github.com/prometheus/haproxy_exporter/releases/tag/v0.8.0",
      "title": "0.8.0 / 2017-08-24",
      "content_html": "<ul>\n<li>[CHANGE] New flag handling (double dashs are required)</li>\n<li>[FEATURE] Add metric for session limit.</li>\n<li>[FEATURE] Add metrics for average HTTP request latency</li>\n</ul>",
      "date_published": "2017-08-24T21:50:47.000Z",
      "author": {
        "name": "grobie"
      }
    },
    {
      "guid": "tag:github.com,2008:Repository/7939398/v0.7.1",
      "url": "https://github.com/prometheus/haproxy_exporter/releases/tag/v0.7.1",
      "title": "0.7.1 / 2016-10-12",
      "content_html": "<ul>\n<li>[BUGFIX] Fix timeout behavior when reusing HTTP connections</li>\n<li>[BUGFIX] Remove usage of undocumented golang type assertion behavior</li>\n</ul>",
      "date_published": "2017-05-25T07:12:19.000Z",
      "author": {
        "name": "grobie"
      }
    },
    {
      "guid": "tag:github.com,2008:Repository/7939398/0.7.0",
      "url": "https://github.com/prometheus/haproxy_exporter/releases/tag/0.7.0",
      "title": "0.7.0 / 2016-06-08",
      "content_html": "<ul>\n<li>[FEATURE] Add support for unix sockets. Thanks <a class=\"user-mention\" data-hovercard-type=\"user\" data-hovercard-url=\"/hovercards?user_id=621306\" data-octo-click=\"hovercard-link-click\" data-octo-dimensions=\"link_type:self\" href=\"https://github.com/alicebob\">@alicebob</a></li>\n</ul>",
      "date_published": "2016-06-08T22:58:05.000Z",
      "author": {
        "name": "grobie"
      }
    },
    {
      "guid": "tag:github.com,2008:Repository/7939398/0.6.0",
      "url": "https://github.com/prometheus/haproxy_exporter/releases/tag/0.6.0",
      "title": "0.6.0 / 2016-05-13",
      "content_html": "<ul>\n<li>[CHANGE] Use new build process, changes the structure of the tarball.</li>\n<li>[FIX] Abort on non-200 status code from HAProxy.</li>\n<li>[ENHANCEMENT] Add -version flag and version metric.</li>\n<li>[ENHANCEMENT] Add chkfail and downtime server metrics.</li>\n<li>[ENHANCEMENT] Remove locks and unnecessary channel communication.</li>\n</ul>",
      "date_published": "2016-05-13T01:48:24.000Z",
      "author": {
        "name": "grobie"
      }
    },
    {
      "guid": "tag:github.com,2008:Repository/7939398/0.5.2",
      "url": "https://github.com/prometheus/haproxy_exporter/releases/tag/0.5.2",
      "title": "0.5.2",
      "content_html": "<ul>\n<li>[FIX] Limit graceful CSV error handling to parse errors</li>\n</ul>",
      "date_published": "2016-04-04T23:12:51.000Z",
      "author": {
        "name": "grobie"
      }
    },
    {
      "guid": "tag:github.com,2008:Repository/7939398/0.5.1",
      "url": "https://github.com/prometheus/haproxy_exporter/releases/tag/0.5.1",
      "title": "0.5.1",
      "content_html": "<ul>\n<li>[FIX] Handle invalid CSV lines gracefully</li>\n</ul>",
      "date_published": "2016-03-31T21:44:55.000Z",
      "author": {
        "name": "grobie"
      }
    },
    {
      "guid": "tag:github.com,2008:Repository/7939398/0.5.0",
      "url": "https://github.com/prometheus/haproxy_exporter/releases/tag/0.5.0",
      "title": "0.5.0",
      "content_html": "<ul>\n<li>[CHANGE] Consolidate flag names</li>\n<li>[CHANGE] New Dockerfile</li>\n<li>[ENHANCEMENT] Export haproxy_check_duration_milliseconds</li>\n<li>[ENHANCEMENT] Export haproxy_limit_sessions</li>\n<li>[ENHANCEMENT] Export haproxy_limit_session_rate</li>\n<li>[ENHANCEMENT] Allow complete deactivation of server metrics</li>\n<li>[ENHANCEMENT] Use common prometheus logging</li>\n<li>[FIX] Fix status field parsing of servers in MAINT status</li>\n</ul>",
      "date_published": "2015-12-23T17:23:14.000Z",
      "author": {
        "name": "grobie"
      }
    },
    {
      "guid": "tag:github.com,2008:Repository/7939398/0.4.0",
      "url": "https://github.com/prometheus/haproxy_exporter/releases/tag/0.4.0",
      "title": "0.4.0 - 05.05.2015",
      "content_html": "<p>Merge pull request <a class=\"issue-link js-issue-link\" href=\"https://github.com/prometheus/haproxy_exporter/pull/27\">#27</a> from ashmere/patch-1</p>\n\n<p>fixing in correct docker run example in readme.md</p>",
      "date_published": "2015-05-05T11:39:24.000Z",
      "author": {
        "name": "discordianfish"
      }
    }
  ]
}