{
  "version": "https://jsonfeed.org/version/1",
  "title": "Release notes from icingaweb2",
  "home_page_url": "https://github.com/Icinga/icingaweb2/releases",
  "items": [
    {
      "guid": "tag:github.com,2008:Repository/13872749/v2.7.1",
      "url": "https://github.com/Icinga/icingaweb2/releases/tag/v2.7.1",
      "title": "Icinga Web 2 Version 2.7.1",
      "content_html": "<h1>What's New in Version 2.7.1</h1>\n<p>You can find all issues related to this release on our <a href=\"https://github.com/Icinga/icingaweb2/milestone/56?closed=1\">Roadmap</a>.</p>\n<h2>Sneaky Solution for Sneaky Links</h2>\n<p>Usually we try to include only bugs in minor-releases. Sorry, bug-fixes, of course. But thanks to <a href=\"https://twitter.com/winem_/status/1156531270521896960\" rel=\"nofollow\">@winem_</a><br>\nwe have also a little enhancement this time: Links in comments, notes, etc. are now <a href=\"https://github.com/Icinga/icingaweb2/pull/3893\" data-hovercard-type=\"pull_request\" data-hovercard-url=\"/Icinga/icingaweb2/pull/3893/hovercard\">highlighted</a> as such.</p>\n<ul>\n<li>Highlight links in the notes of an object <a href=\"https://github.com/Icinga/icingaweb2/issues/3888\" data-hovercard-type=\"issue\" data-hovercard-url=\"/Icinga/icingaweb2/issues/3888/hovercard\">#3888</a></li>\n</ul>\n<h2>Nobody's Perfect, Not Even Developers</h2>\n<p>We knew it. We saw it coming. And forgot about it. Some views, especially histories, showed an anarchic behavior<br>\nsince v2.7.0. The change responsible for this has been undone and history's order is reestablished now.</p>\n<ul>\n<li>Default sort rules no longer work in 2.7.0 <a href=\"https://github.com/Icinga/icingaweb2/issues/3891\" data-hovercard-type=\"issue\" data-hovercard-url=\"/Icinga/icingaweb2/issues/3891/hovercard\">#3891</a></li>\n</ul>\n<h2>Restrictions Gone <del>Wild</del> Cagey</h2>\n<p>A <a href=\"https://github.com/Icinga/icingaweb2/pull/3868\" data-hovercard-type=\"pull_request\" data-hovercard-url=\"/Icinga/icingaweb2/pull/3868/hovercard\">fix</a> unfortunately caused restrictions using wildcards to show no results anymore.<br>\nThis is now solved and such restrictions are as permissive as ever.</p>\n<ul>\n<li>Wildcard filters in chains broken <a href=\"https://github.com/Icinga/icingaweb2/issues/3886\" data-hovercard-type=\"issue\" data-hovercard-url=\"/Icinga/icingaweb2/issues/3886/hovercard\">#3886</a></li>\n</ul>",
      "date_published": "2019-08-14T12:01:42.000Z",
      "author": {
        "name": "nilmerg"
      }
    },
    {
      "guid": "tag:github.com,2008:Repository/13872749/v2.7.0",
      "url": "https://github.com/Icinga/icingaweb2/releases/tag/v2.7.0",
      "title": "Icinga Web 2 Version 2.7.0",
      "content_html": "<h1>What's New in Version 2.7.0</h1>\n<p>You can find issues related to this release on our <a href=\"https://github.com/Icinga/icingaweb2/milestone/52?closed=1\">Roadmap</a>.</p>\n<h2>Icinga's Amazingness Spreads Further</h2>\n<p>All the Japanese and Ukrainian monitoring enthusiasts can now appreciate our web-frontend in their native tongue. Being<br>\nso late to the party is also of their advantage, though. Because they can adjust their dashboard without worrying it gets<br>\nbroke with the next update. (All other admins with non-english users, please have a look at our<br>\n<a href=\"/Icinga/icingaweb2/blob/v2.7.0/doc/80-Upgrading.md#upgrading-to-icinga-web-2-27x-\">upgrading documentation</a>)</p>\n<ul>\n<li>Add Japanese language support <a href=\"https://github.com/Icinga/icingaweb2/pull/3776\" data-hovercard-type=\"pull_request\" data-hovercard-url=\"/Icinga/icingaweb2/pull/3776/hovercard\">#3776</a></li>\n<li>Add Ukrainian language support <a href=\"https://github.com/Icinga/icingaweb2/pull/3828\" data-hovercard-type=\"pull_request\" data-hovercard-url=\"/Icinga/icingaweb2/pull/3828/hovercard\">#3828</a></li>\n<li>Don't translate pane and dashlet names in configs <a href=\"https://github.com/Icinga/icingaweb2/pull/3837\" data-hovercard-type=\"pull_request\" data-hovercard-url=\"/Icinga/icingaweb2/pull/3837/hovercard\">#3837</a></li>\n</ul>\n<h2>Modules - Bonus Functionality Unleashed</h2>\n<p>With this release module developers got additional ways to customize Icinga Web 2. Whether you ever wanted to hook into<br>\na configuration form's handling, to perform your very own Ajax requests or enhance our multi-select views with fancy<br>\ngraphs. All is possible now.</p>\n<ul>\n<li>Allow to hook into a configuration form's handling <a href=\"https://github.com/Icinga/icingaweb2/pull/3862\" data-hovercard-type=\"pull_request\" data-hovercard-url=\"/Icinga/icingaweb2/pull/3862/hovercard\">#3862</a></li>\n<li>Allow to fully customize click and submit handling <a href=\"https://github.com/Icinga/icingaweb2/issues/3767\" data-hovercard-type=\"issue\" data-hovercard-url=\"/Icinga/icingaweb2/issues/3767/hovercard\">#3794</a></li>\n<li>Integrate DetailviewExtension into multi-select views <a href=\"https://github.com/Icinga/icingaweb2/pull/3304\" data-hovercard-type=\"pull_request\" data-hovercard-url=\"/Icinga/icingaweb2/pull/3304/hovercard\">#3304</a></li>\n</ul>\n<h2>UI - Your Daily Routine and Incident Management, Enhanced</h2>\n<p>Users with color deficiencies now have a built-in theme to ease navigating within Icinga Web 2. Also, our forms got<br>\na long overdue re-design and now look less boring. Though, the best of all features is that clicking while holding<br>\nthe Ctrl-key now actually opens a new browser tab! Lost comments? No more. Defining an expiry date again? No more!</p>\n<ul>\n<li>Add colorblind theme <a href=\"https://github.com/Icinga/icingaweb2/pull/3743\" data-hovercard-type=\"pull_request\" data-hovercard-url=\"/Icinga/icingaweb2/pull/3743/hovercard\">#3743</a></li>\n<li>Improve the look of forms <a href=\"https://github.com/Icinga/icingaweb2/issues/3416\" data-hovercard-type=\"issue\" data-hovercard-url=\"/Icinga/icingaweb2/issues/3416/hovercard\">#3416</a></li>\n<li>Make ctrl-click open new tab <a href=\"https://github.com/Icinga/icingaweb2/pull/3723\" data-hovercard-type=\"pull_request\" data-hovercard-url=\"/Icinga/icingaweb2/pull/3723/hovercard\">#3723</a></li>\n</ul>\n<h2>Stay Focused - More Room for More Important Stuff</h2>\n<p>Some of you know that some checks tend to produce walls of text or measure (too) many interfaces. Now, plugin output<br>\nand performance data will collapse if they exceed a certain height. If necessary they can of course be expanded and<br>\nkeep that way across browser restarts. The same is also true for the sidebar. (Though, this one stays <em>collapsed</em>)</p>\n<ul>\n<li>Persistent Collapsible Containers <a href=\"https://github.com/Icinga/icingaweb2/pull/3638\" data-hovercard-type=\"pull_request\" data-hovercard-url=\"/Icinga/icingaweb2/pull/3638/hovercard\">#3638</a></li>\n<li>Collapsible plugin output <a href=\"https://github.com/Icinga/icingaweb2/pull/3870\" data-hovercard-type=\"pull_request\" data-hovercard-url=\"/Icinga/icingaweb2/pull/3870/hovercard\">#3870</a></li>\n<li>Collapsed sidebar should stay collapsed <a href=\"https://github.com/Icinga/icingaweb2/issues/3628\" data-hovercard-type=\"issue\" data-hovercard-url=\"/Icinga/icingaweb2/issues/3628/hovercard\">#3682</a></li>\n</ul>\n<h2>Markdown - Tables, Lists and Emphasized Text The Easy Way</h2>\n<p>Since we now have the possibility to collapse large content dynamically, we allow you to add entire wiki pages to hosts<br>\nand services. Though, if you prefer to use a real wiki to maintain those (what we'd strongly suggest) it's now easier<br>\nthan ever before to link to it. Copy url, paste url, submit comment, Done.</p>\n<ul>\n<li>Make notes, comments and announcements markdown aware <a href=\"https://github.com/Icinga/icingaweb2/pull/3814\" data-hovercard-type=\"pull_request\" data-hovercard-url=\"/Icinga/icingaweb2/pull/3814/hovercard\">#3814</a></li>\n<li>Transform any URL in a Comment to a clickable Link <a href=\"https://github.com/Icinga/icingaweb2/issues/3441\" data-hovercard-type=\"issue\" data-hovercard-url=\"/Icinga/icingaweb2/issues/3441/hovercard\">#3441</a></li>\n<li>Support relative links in plugin output <a href=\"https://github.com/Icinga/icingaweb2/issues/2916\" data-hovercard-type=\"issue\" data-hovercard-url=\"/Icinga/icingaweb2/issues/2916/hovercard\">#2916</a></li>\n</ul>\n<h2>Things You Have Missed Previously</h2>\n<p>The tactical overview, our fancy pie charts, is now the very first result when you search something in the sidebar.<br>\nIf you'll see two entirely green circles there, relax. Also overdue or unreachable checks are now appropriately marked<br>\nin list views and the service grid now allows you to switch between everything or problems only.</p>\n<ul>\n<li>Add tactical overview to global search <a href=\"https://github.com/Icinga/icingaweb2/pull/3845\" data-hovercard-type=\"pull_request\" data-hovercard-url=\"/Icinga/icingaweb2/pull/3845/hovercard\">#3845</a></li>\n<li>Servicegrid: Add toggle to show problems only <a href=\"https://github.com/Icinga/icingaweb2/pull/3871\" data-hovercard-type=\"pull_request\" data-hovercard-url=\"/Icinga/icingaweb2/pull/3871/hovercard\">#3871</a></li>\n<li>Make overdue/unreachable checks better visible <a href=\"https://github.com/Icinga/icingaweb2/pull/3860\" data-hovercard-type=\"pull_request\" data-hovercard-url=\"/Icinga/icingaweb2/pull/3860/hovercard\">#3860</a></li>\n</ul>\n<h2>Authorization - Knowing and Controlling What's Going On</h2>\n<p>Roles can now be even more tailored to users since the introduction of a new placeholder. This placeholder allows to<br>\nuse a user's name in restrictions. Things like <code>_service_responsible_person=$user:local_name$</code> are now possible. The<br>\naudit log now receives failed login-attempts, that's been made possible since hooks can now run for anonymous users.</p>\n<ul>\n<li>Allow roles to filter for the currently logged in user <a href=\"https://github.com/Icinga/icingaweb2/issues/3493\" data-hovercard-type=\"issue\" data-hovercard-url=\"/Icinga/icingaweb2/issues/3493/hovercard\">#3493</a></li>\n<li>Add possibility to disable permission checks for hooks <a href=\"https://github.com/Icinga/icingaweb2/pull/3849\" data-hovercard-type=\"pull_request\" data-hovercard-url=\"/Icinga/icingaweb2/pull/3849/hovercard\">#3849</a></li>\n<li>Send failed login-attempts to the audit log <a href=\"https://github.com/Icinga/icingaweb2/pull/3856\" data-hovercard-type=\"pull_request\" data-hovercard-url=\"/Icinga/icingaweb2/pull/3856/hovercard\">#3856</a></li>\n</ul>\n<p>See also the <a href=\"https://github.com/Icinga/icingaweb2-module-audit/releases\">audit module</a> which got an update and is required for <a href=\"https://github.com/Icinga/icingaweb2/pull/3856\" data-hovercard-type=\"pull_request\" data-hovercard-url=\"/Icinga/icingaweb2/pull/3856/hovercard\">#3856</a> to work.</p>",
      "date_published": "2019-07-30T12:40:59.000Z",
      "author": {
        "name": "nilmerg"
      }
    },
    {
      "guid": "tag:github.com,2008:Repository/13872749/v2.6.3",
      "url": "https://github.com/Icinga/icingaweb2/releases/tag/v2.6.3",
      "title": "Icinga Web 2 Version 2.6.3",
      "content_html": "<h1>What's New in Version 2.6.3</h1>\n<p>You can find issues related to this release on our <a href=\"https://github.com/Icinga/icingaweb2/milestone/54?closed=1\">Roadmap</a>.</p>\n<h2>PHP 7.3</h2>\n<p>Now supported. <g-emoji class=\"g-emoji\" alias=\"tada\" fallback-src=\"https://github.githubassets.com/images/icons/emoji/unicode/1f389.png\">🎉</g-emoji></p>\n<h2>LDAP - Community contributions, that's the spirit</h2>\n<p>With the help of our users we've finally fixed the issue that defining multiple hostnames and enabling STARTTLS has<br>\nnever properly worked. Also, they've identified that defining multiple hostnames caused a customized port not being<br>\nutilized and fixed it themselves.</p>\n<p>There has also a rare case been fixed that caused no group members being found in case object classes had a different<br>\ncasing than what we expected. (Good news for all the non-OpenLdap and non-MSActiveDirectory users)</p>\n<ul>\n<li>LDAP connection fails with multiple servers using STARTTLS <a href=\"https://github.com/Icinga/icingaweb2/issues/3639\" data-hovercard-type=\"issue\" data-hovercard-url=\"/Icinga/icingaweb2/issues/3639/hovercard\">#3639</a></li>\n<li>LDAPS authentication ignores custom port setting <a href=\"https://github.com/Icinga/icingaweb2/issues/3713\" data-hovercard-type=\"issue\" data-hovercard-url=\"/Icinga/icingaweb2/issues/3713/hovercard\">#3713</a></li>\n<li>LDAP group members not found <a href=\"https://github.com/Icinga/icingaweb2/issues/3650\" data-hovercard-type=\"issue\" data-hovercard-url=\"/Icinga/icingaweb2/issues/3650/hovercard\">#3650</a></li>\n</ul>\n<h2>We take care about your data even better now</h2>\n<p>With this are newlines and HTML entities (such as <code>&amp;nbsp;</code>) in plugin output and custom variables meant.<br>\nSorry if I've teased some data security folks now. <g-emoji class=\"g-emoji\" alias=\"innocent\" fallback-src=\"https://github.githubassets.com/images/icons/emoji/unicode/1f607.png\">😇</g-emoji></p>\n<ul>\n<li>Newlines in plugin output disappear <a href=\"https://github.com/Icinga/icingaweb2/issues/3662\" data-hovercard-type=\"issue\" data-hovercard-url=\"/Icinga/icingaweb2/issues/3662/hovercard\">#3662</a></li>\n<li>Windows path separators are converted to newlines in custom variables <a href=\"https://github.com/Icinga/icingaweb2/issues/3636\" data-hovercard-type=\"issue\" data-hovercard-url=\"/Icinga/icingaweb2/issues/3636/hovercard\">#3636</a></li>\n<li>HTML entities in plugin output are not resolved if no other HTML is there <a href=\"https://github.com/Icinga/icingaweb2/issues/3707\" data-hovercard-type=\"issue\" data-hovercard-url=\"/Icinga/icingaweb2/issues/3707/hovercard\">#3707</a></li>\n</ul>\n<h2>You've wondered how you got into a famous blue police box?</h2>\n<p>Don't worry, not only you and the european union are sometimes unsure what's the correct time.</p>\n<ul>\n<li>Set client timezone on DB connection <a href=\"https://github.com/Icinga/icingaweb2/issues/3525\" data-hovercard-type=\"issue\" data-hovercard-url=\"/Icinga/icingaweb2/issues/3525/hovercard\">#3525</a></li>\n<li>Ensure a valid default timezone is set in any case <a href=\"https://github.com/Icinga/icingaweb2/pull/3747\" data-hovercard-type=\"pull_request\" data-hovercard-url=\"/Icinga/icingaweb2/pull/3747/hovercard\">#3747</a></li>\n<li>Fix that the event detail view is not showing times in correct timezone <a href=\"https://github.com/Icinga/icingaweb2/pull/3660\" data-hovercard-type=\"pull_request\" data-hovercard-url=\"/Icinga/icingaweb2/pull/3660/hovercard\">#3660</a></li>\n</ul>\n<h2>UI - The portal to your monitoring environment, improved</h2>\n<p>The collapsible sidebar introduced with v2.5 has been plagued by some issues since then. They're now fixed. Also,<br>\nthe UI should now flicker less and properly preserve the scroll position when interacting with action links. (This<br>\nalso allows the business process module to behave more stable when using drag and drop in large configurations.)</p>\n<ul>\n<li>Collapsible Sidebar Issues <a href=\"https://github.com/Icinga/icingaweb2/issues/3187\" data-hovercard-type=\"issue\" data-hovercard-url=\"/Icinga/icingaweb2/issues/3187/hovercard\">#3187</a></li>\n<li>Fix title when closing right column <a href=\"https://github.com/Icinga/icingaweb2/issues/3654\" data-hovercard-type=\"issue\" data-hovercard-url=\"/Icinga/icingaweb2/issues/3654/hovercard\">#3654</a></li>\n<li>Preserve scroll position upon form submits <a href=\"https://github.com/Icinga/icingaweb2/pull/3661\" data-hovercard-type=\"pull_request\" data-hovercard-url=\"/Icinga/icingaweb2/pull/3661/hovercard\">#3661</a></li>\n</ul>\n<h2>Corrected things we've broke recently</h2>\n<p>That's due to preemptive changes to protect you from bad individuals. Unfortunately this meant that some unforeseen<br>\nside-effects appeared after the release of v2.6.2. These are now fixed.</p>\n<ul>\n<li>Multiline values in ini files broken <a href=\"https://github.com/Icinga/icingaweb2/issues/3705\" data-hovercard-type=\"issue\" data-hovercard-url=\"/Icinga/icingaweb2/issues/3705/hovercard\">#3705</a></li>\n<li>PHP ini parser doesn't strip trailing whitespace <a href=\"https://github.com/Icinga/icingaweb2/issues/3733\" data-hovercard-type=\"issue\" data-hovercard-url=\"/Icinga/icingaweb2/issues/3733/hovercard\">#3733</a></li>\n<li>Escaped characters in INI values are not unescaped <a href=\"https://github.com/Icinga/icingaweb2/issues/3648\" data-hovercard-type=\"issue\" data-hovercard-url=\"/Icinga/icingaweb2/issues/3648/hovercard\">#3648</a></li>\n</ul>\n<p>Though, if you've faced issue <a href=\"https://github.com/Icinga/icingaweb2/issues/3705\" data-hovercard-type=\"issue\" data-hovercard-url=\"/Icinga/icingaweb2/issues/3705/hovercard\">#3705</a> you still need to take manual<br>\naction (if not already done) as the provided fix does only prevent further occurrences of the resulting error. The<br>\nrequired changes involve the transformation of all real newlines in Icinga Web 2's INI files to literal <code>\\n</code> or <code>\\r\\n</code><br>\nsequences. (Files likely having such are the <code>roles.ini</code> and <code>announcements.ini</code>)</p>",
      "date_published": "2019-04-26T12:11:56.000Z",
      "author": {
        "name": "nilmerg"
      }
    },
    {
      "guid": "tag:github.com,2008:Repository/13872749/v2.6.2",
      "url": "https://github.com/Icinga/icingaweb2/releases/tag/v2.6.2",
      "title": "Icinga Web 2 Version 2.6.2",
      "content_html": "<h1>What's New in Version 2.6.2</h1>\n<p>You can find issues and features related to this release on our <a href=\"https://github.com/Icinga/icingaweb2/milestone/53?closed=1\">Roadmap</a>.</p>\n<p>This bugfix release addresses the following topics:</p>\n<ul>\n<li>Database connections to MySQL 8 no longer fail</li>\n<li>LDAP connections now have a timeout configuration which defaults to 5 seconds</li>\n<li>User groups are now correctly loaded for externally authenticated users</li>\n<li>Filters are respected for all links in the host and service group overviews</li>\n<li>Fixed permission problems where host and service actions provided by modules were missing</li>\n<li>Fixed an SQL error in the contact list view when filtering for host groups</li>\n<li>Fixed time zone (DST) detection</li>\n<li>Fixed the contact details view if restrictions are active</li>\n<li>Doc parser and documentation fixes</li>\n</ul>",
      "date_published": "2018-11-21T09:58:10.000Z",
      "author": {
        "name": "lippserd"
      }
    },
    {
      "guid": "tag:github.com,2008:Repository/13872749/v2.6.1",
      "url": "https://github.com/Icinga/icingaweb2/releases/tag/v2.6.1",
      "title": "Icinga Web 2 Version 2.6.1",
      "content_html": "<h1>What's New in Version 2.6.1</h1>\n<p>You can find issues and features related to this release on our <a href=\"https://github.com/Icinga/icingaweb2/milestone/51?closed=1\">Roadmap</a>.</p>\n<p>The command audit now logs a command's payload as JSON which fixes a<br>\n<a href=\"https://github.com/Icinga/icingaweb2/issues/3535\" data-hovercard-type=\"issue\" data-hovercard-url=\"/Icinga/icingaweb2/issues/3535/hovercard\">bug</a> that has been introduced in version 2.6.0.</p>",
      "date_published": "2018-08-02T14:20:24.000Z",
      "author": {
        "name": "lippserd"
      }
    },
    {
      "guid": "tag:github.com,2008:Repository/13872749/v2.6.0",
      "url": "https://github.com/Icinga/icingaweb2/releases/tag/v2.6.0",
      "title": "Icinga Web 2 Version 2.6",
      "content_html": "<h1>What's New in Version 2.6.0</h1>\n<p>You can find issues and features related to this release on our <a href=\"https://github.com/Icinga/icingaweb2/milestone/48?closed=1\">Roadmap</a>.</p>\n<h2>Enabling you to do stuff you couldn't before</h2>\n<ul>\n<li>Support for PHP 7.2 added</li>\n<li>Support for SQLite resources added</li>\n<li>Login and Command (monitoring) auditing added with the help of a dedicated <a href=\"https://github.com/Icinga/icingaweb2-module-audit\">module</a></li>\n<li>Pluginoutput rendering is now hookable by modules which allows to render custom icons, emojis and .. cute kitties <img class=\"emoji\" title=\":octocat:\" alt=\":octocat:\" src=\"https://github.githubassets.com/images/icons/emoji/octocat.png\" height=\"20\" width=\"20\" align=\"absmiddle\"></li>\n</ul>\n<h2>Avoiding that you miss something</h2>\n<ul>\n<li>It's now possible to toggle between list- and grid-mode for the host- and servicegroup overviews</li>\n<li>The servicegrid now supports to flip its axes which allows it to be put into a <a href=\"https://github.com/Icinga/icingaweb2/pull/3449#issue-185415579\" data-hovercard-type=\"pull_request\" data-hovercard-url=\"/Icinga/icingaweb2/pull/3449/hovercard\">landscape mode</a></li>\n<li>Contacts only associated with services are visible now when restricted based on host filters</li>\n<li>Negated and combined membership filters now work as expected (<a href=\"https://github.com/Icinga/icingaweb2/issues/2934\" data-hovercard-type=\"issue\" data-hovercard-url=\"/Icinga/icingaweb2/issues/2934/hovercard\">#2934</a>)</li>\n<li>A more prominent error message in case the monitoring backend goes down</li>\n<li>The filter editor doesn't get cleared anymore upon hitting Enter</li>\n</ul>\n<h2>Making your life a bit easier</h2>\n<ul>\n<li>The tactical overview is now filterable and can be safely put into <a href=\"https://github.com/Icinga/icingaweb2/pull/3446#issue-185379142\" data-hovercard-type=\"pull_request\" data-hovercard-url=\"/Icinga/icingaweb2/pull/3446/hovercard\">the dashboard</a></li>\n<li>It is now possible to register new announcements over the <a href=\"https://github.com/Icinga/icingaweb2/issues/2749#issuecomment-279667189\" data-hovercard-type=\"issue\" data-hovercard-url=\"/Icinga/icingaweb2/issues/2749/hovercard\">REST Api</a></li>\n<li>Filtering for custom variables now works in UTF8 environments</li>\n</ul>\n<h2>Ensuring you understand everything</h2>\n<ul>\n<li>The monitoring health is now beautiful to look at and properly behaves in <a href=\"https://github.com/Icinga/icingaweb2/pull/3515#issue-200075373\" data-hovercard-type=\"pull_request\" data-hovercard-url=\"/Icinga/icingaweb2/pull/3515/hovercard\">narrow environments</a></li>\n<li>Updated German localization</li>\n<li>Updated Italian localization</li>\n</ul>\n<h2>Freeing you from unrealiable things</h2>\n<ul>\n<li>Removed support for PHP &lt; 5.6</li>\n<li>Removed support for persistent database connections</li>\n</ul>",
      "date_published": "2018-07-19T08:11:15.000Z",
      "author": {
        "name": "nilmerg"
      }
    },
    {
      "guid": "tag:github.com,2008:Repository/13872749/v2.5.3",
      "url": "https://github.com/Icinga/icingaweb2/releases/tag/v2.5.3",
      "title": "Icinga Web 2 Version 2.5.3",
      "content_html": "<p>This is a hotfix release and addresses an issue with frequent delays/timeouts when viewing hosts and services in the front-end. (<a class=\"issue-link js-issue-link\" data-error-text=\"Failed to load issue title\" data-id=\"318311134\" data-permission-text=\"Issue title is private\" data-url=\"https://github.com/Icinga/icingaweb2/issues/3436\" data-hovercard-type=\"issue\" data-hovercard-url=\"/Icinga/icingaweb2/issues/3436/hovercard\" href=\"https://github.com/Icinga/icingaweb2/issues/3436\">#3436</a>)</p>",
      "date_published": "2018-04-27T08:30:57.000Z",
      "author": {
        "name": "nilmerg"
      }
    },
    {
      "guid": "tag:github.com,2008:Repository/13872749/v2.5.2",
      "url": "https://github.com/Icinga/icingaweb2/releases/tag/v2.5.2",
      "title": "Icinga Web 2 Version 2.5.2",
      "content_html": "<h1>What's New in Version 2.5.2</h1>\n<p>You can find issues and features related to this release on our <a href=\"https://github.com/Icinga/icingaweb2/milestone/49?closed=1\">Roadmap</a>.</p>\n<h2>UI Changes</h2>\n<p>The sidebar's search behaviour has been changed so that it does only react to user-input after the user stopped typing. Also, the cursor does not jump to the end of form-inputs anymore in case of an auto-refresh. We've also fixed an issue that caused <a href=\"https://github.com/Icinga/icingaweb2/issues/3181#issuecomment-378875462\" data-hovercard-type=\"issue\" data-hovercard-url=\"/Icinga/icingaweb2/issues/3181/hovercard\">custom icons</a> to be inverted when placed in the sidebar. Last but not least, the header now expands its width beyond the 3840px mark and single dashlets do not show a horizontal scrollbar anymore.</p>\n<h2>PHP7 MSSQL Compatibility</h2>\n<p>Support for Microsoft's <code>sqlsrv</code> extension has been added. Also, it's now possible to setup MSSQL resources in the front-end using the <code>dblib</code> extension.</p>\n<h2>Proper Error Responses</h2>\n<p>An issue introduced with v2.5.1 has been resolved where some errors (especially HTTP 404 Not Found) were masked by another subsequent error.</p>\n<h2>Broken LDAP Group Memberships</h2>\n<p>An issue introduced with v2.5.1 has been resolved where users with a domain in their name were not associated with any LDAP groups.</p>\n<h2>Monitoring Module</h2>\n<p>Issuing a check using the \"Check Now\" action now properly causes a check being made by Icinga 2 even if outside the timeperiod. (Note: This issue was only present if using the Icinga 2 Api as command transport.)</p>\n<h2>Login/Logout Expandability</h2>\n<p>It's now possible for modules to provide hooks for the user authorization. This for example allows to transparently authenticate users in third-party applications such as <a href=\"https://github.com/Icinga/icingaweb2/pull/3401#issue-178030542\" data-hovercard-type=\"pull_request\" data-hovercard-url=\"/Icinga/icingaweb2/pull/3401/hovercard\">Grafana</a>.</p>",
      "date_published": "2018-04-25T12:13:49.000Z",
      "author": {
        "name": "nilmerg"
      }
    },
    {
      "guid": "tag:github.com,2008:Repository/13872749/v2.5.1",
      "url": "https://github.com/Icinga/icingaweb2/releases/tag/v2.5.1",
      "title": "Icinga Web 2 Version 2.5.1",
      "content_html": "<h1>What's New in Version 2.5.1</h1>\n<p>You can find issues and features related to this release on our <a href=\"https://github.com/Icinga/icingaweb2/milestone/47?closed=1\">Roadmap</a>.</p>\n<p>Besides many other bug fixes, Icinga Web 2 v2.5.1 fixes an issue where it was no longer possible to filter by host custom variables in service related views. Also, this release introduces detail views for the event history and improved upgrading docs. Furthermore, this version censors sensitive information (e.g. LDAP passwords) in exception stack traces.</p>",
      "date_published": "2018-01-22T13:45:37.000Z",
      "author": {
        "name": "lippserd"
      }
    },
    {
      "guid": "tag:github.com,2008:Repository/13872749/v2.5.0",
      "url": "https://github.com/Icinga/icingaweb2/releases/tag/v2.5.0",
      "title": "Icinga Web 2 Version 2.5.0",
      "content_html": "<h1>What's New in Version 2.5.0</h1>\n<p>You can find issues and features related to this release on our <a href=\"https://github.com/Icinga/icingaweb2/milestone/45?closed=1\">Roadmap</a>.</p>\n<h2>Raised PHP Version Dependency</h2>\n<p>Icinga Web 2 now requires at least PHP 5.6.</p>\n<h2>UI Changes</h2>\n<p>The style of the login screen and menu have been changed. Also, the menu of Icinga Web 2 is now collapsible. Browser tabs will not auto-refresh if they are inactive. Users are now allowed to change the default pagination limit via their preferences.</p>\n<h2>Domain-aware Authentication for Active Directory and LDAP Backends</h2>\n<p>If there are multiple AD/LDAP authentication backends with distinct domains, you are now able to make Icinga Web 2 aware of the domains. This can be done by configuring each AD/LDAP backend's domain. You can also use the GUI for this purpose. Please read our <a href=\"/Icinga/icingaweb2/blob/v2.5.0/doc/05-Authentication.md#domain-aware-auth\">documentation</a> for more information about this feature.</p>\n<h2>Changes in Packaging and Dependencies</h2>\n<p>Valid for distributions:</p>\n<ul>\n<li>RHEL / CentOS 6 + 7\n<ul>\n<li>Upgrading to PHP 7.0 / 7.1 via RedHat SCL (new dependency)</li>\n<li>See <a href=\"/Icinga/icingaweb2/blob/v2.5.0/doc/02-Installation.md#upgrading-to-fpm\">Upgrading to FPM</a> for manual steps that are required</li>\n</ul>\n</li>\n<li>SUSE SLE 12\n<ul>\n<li>Upgrading PHP to &gt;= 5.6.0 via the alternative packages.<br>\nYou might have to confirm the replacement of PHP &lt; 5.6 - but that should work with any other PHP app as well</li>\n<li>Make sure to enable the new Apache module <code>a2enmod php7</code> and restart <code>apache2</code></li>\n</ul>\n</li>\n</ul>\n<h2>Discontinued Package Updates</h2>\n<p>For the following distributions Icinga Web 2 won't be updated past 2.4.x anymore:</p>\n<ul>\n<li>Debian 7 wheezy</li>\n<li>Ubuntu 14.04 LTS (trusty)</li>\n<li>SUSE SLE 11 (all service packs)</li>\n</ul>\n<p>Please think about replacing your central Icinga system to a newer distribution release.</p>\n<p>Also see <a href=\"https://packages.icinga.com\" rel=\"nofollow\">packages.icinga.com</a> for the currently supported distributions.</p>",
      "date_published": "2017-11-27T17:02:24.000Z",
      "author": {
        "name": "lippserd"
      }
    }
  ]
}