{
  "version": "https://jsonfeed.org/version/1",
  "title": "Release notes from karma",
  "home_page_url": "https://github.com/prymitive/karma/releases",
  "items": [
    {
      "guid": "tag:github.com,2008:Repository/148022767/v0.45",
      "url": "https://github.com/prymitive/karma/releases/tag/v0.45",
      "title": "v0.45",
      "content_html": "<p>This release fixes silence creation &amp; deletion from the UI where:</p>\n<ul>\n<li>alertmanager URI contains username &amp; password</li>\n<li>proxy mode for tha alertmanager is <em>disabled</em> (<code>proxy: false</code>)</li>\n</ul>\n<p>All builds (binaries + docker images) now use Go 1.13.1 which includes fixes for <a class=\"issue-link js-issue-link\" data-error-text=\"Failed to load issue title\" data-id=\"498537818\" data-permission-text=\"Issue title is private\" data-url=\"https://github.com/golang/go/issues/34540\" data-hovercard-type=\"issue\" data-hovercard-url=\"/golang/go/issues/34540/hovercard\" href=\"https://github.com/golang/go/issues/34540\">golang/go#34540</a>.</p>\n<p>Full changelog:</p>\n<ul>\n<li><a href=\"https://github.com/prymitive/karma/pull/976\" data-hovercard-type=\"pull_request\" data-hovercard-url=\"/prymitive/karma/pull/976/hovercard\">#976</a> chore(ui): upgrade all 3rd party dependencies</li>\n<li><a href=\"https://github.com/prymitive/karma/pull/975\" data-hovercard-type=\"pull_request\" data-hovercard-url=\"/prymitive/karma/pull/975/hovercard\">#975</a> fix(build): speed up docker builds</li>\n<li><a href=\"https://github.com/prymitive/karma/pull/974\" data-hovercard-type=\"pull_request\" data-hovercard-url=\"/prymitive/karma/pull/974/hovercard\">#974</a> fix(ui): pass configured alertmanager headers to in-browser fetch calls</li>\n<li><a href=\"https://github.com/prymitive/karma/pull/973\" data-hovercard-type=\"pull_request\" data-hovercard-url=\"/prymitive/karma/pull/973/hovercard\">#973</a> chore(ci): use Go 1.13.1 on Travis</li>\n<li><a href=\"https://github.com/prymitive/karma/pull/970\" data-hovercard-type=\"pull_request\" data-hovercard-url=\"/prymitive/karma/pull/970/hovercard\">#970</a> fix(ui): prevent grid resize loops</li>\n<li><a href=\"https://github.com/prymitive/karma/pull/957\" data-hovercard-type=\"pull_request\" data-hovercard-url=\"/prymitive/karma/pull/957/hovercard\">#957</a> fix(ui): set lower minimum height for Percy snapshots</li>\n<li><a href=\"https://github.com/prymitive/karma/pull/956\" data-hovercard-type=\"pull_request\" data-hovercard-url=\"/prymitive/karma/pull/956/hovercard\">#956</a> chore(ui): pass upgrade screen reload timer as props</li>\n<li><a href=\"https://github.com/prymitive/karma/pull/954\" data-hovercard-type=\"pull_request\" data-hovercard-url=\"/prymitive/karma/pull/954/hovercard\">#954</a> fix(ui): allow sort label dropdown to overflow accordion container</li>\n</ul>",
      "date_published": "2019-09-26T22:40:16.000Z",
      "author": {
        "name": "prymitive"
      }
    },
    {
      "guid": "tag:github.com,2008:Repository/148022767/v0.44",
      "url": "https://github.com/prymitive/karma/releases/tag/v0.44",
      "title": "v0.44",
      "content_html": "<p>Added <code>external_uri</code> config option for alertmanager upstreams (<a class=\"issue-link js-issue-link\" data-error-text=\"Failed to load issue title\" data-id=\"486031440\" data-permission-text=\"Issue title is private\" data-url=\"https://github.com/prymitive/karma/issues/900\" data-hovercard-type=\"pull_request\" data-hovercard-url=\"/prymitive/karma/pull/900/hovercard\" href=\"https://github.com/prymitive/karma/pull/900\">#900</a>).<br>\nBuild binaries for all platforms supported by alertmanager (<a class=\"issue-link js-issue-link\" data-error-text=\"Failed to load issue title\" data-id=\"486384177\" data-permission-text=\"Issue title is private\" data-url=\"https://github.com/prymitive/karma/issues/904\" data-hovercard-type=\"pull_request\" data-hovercard-url=\"/prymitive/karma/pull/904/hovercard\" href=\"https://github.com/prymitive/karma/pull/904\">#904</a>).<br>\nMinor UI tweaks, bug fixes and testing/CI improvements.</p>\n<p>Full changelog:</p>\n<ul>\n<li><a href=\"https://github.com/prymitive/karma/pull/951\" data-hovercard-type=\"pull_request\" data-hovercard-url=\"/prymitive/karma/pull/951/hovercard\">#951</a> feat(ui): use accordion layout for main modal</li>\n<li><a href=\"https://github.com/prymitive/karma/pull/945\" data-hovercard-type=\"pull_request\" data-hovercard-url=\"/prymitive/karma/pull/945/hovercard\">#945</a> fix(ci): force default font for percy</li>\n<li><a href=\"https://github.com/prymitive/karma/pull/939\" data-hovercard-type=\"pull_request\" data-hovercard-url=\"/prymitive/karma/pull/939/hovercard\">#939</a> fix(backend): upgrade Go gin</li>\n<li><a href=\"https://github.com/prymitive/karma/pull/937\" data-hovercard-type=\"pull_request\" data-hovercard-url=\"/prymitive/karma/pull/937/hovercard\">#937</a> chore(ci): don't run percy snapshots on merge</li>\n<li><a href=\"https://github.com/prymitive/karma/pull/936\" data-hovercard-type=\"pull_request\" data-hovercard-url=\"/prymitive/karma/pull/936/hovercard\">#936</a> chore(backend): use Masterminds/semver instead of blang/semver</li>\n<li><a href=\"https://github.com/prymitive/karma/pull/935\" data-hovercard-type=\"pull_request\" data-hovercard-url=\"/prymitive/karma/pull/935/hovercard\">#935</a> fix(ui): revert style changes for upgrade screen</li>\n<li><a href=\"https://github.com/prymitive/karma/pull/905\" data-hovercard-type=\"pull_request\" data-hovercard-url=\"/prymitive/karma/pull/905/hovercard\">#905</a> feat(ci): use percy for visual testing</li>\n<li><a href=\"https://github.com/prymitive/karma/pull/933\" data-hovercard-type=\"pull_request\" data-hovercard-url=\"/prymitive/karma/pull/933/hovercard\">#933</a> fix(ui): improve readability of error / upgrade messages</li>\n<li><a href=\"https://github.com/prymitive/karma/pull/931\" data-hovercard-type=\"pull_request\" data-hovercard-url=\"/prymitive/karma/pull/931/hovercard\">#931</a> chore(backend): bump incompatible go module deps</li>\n<li><a href=\"https://github.com/prymitive/karma/pull/921\" data-hovercard-type=\"pull_request\" data-hovercard-url=\"/prymitive/karma/pull/921/hovercard\">#921</a> chore(tests): add mock files for alertmanager 0.19.0</li>\n<li><a href=\"https://github.com/prymitive/karma/pull/919\" data-hovercard-type=\"pull_request\" data-hovercard-url=\"/prymitive/karma/pull/919/hovercard\">#919</a> fix(docs): remove outdated sections from CONTRIBUTING.md</li>\n<li><a href=\"https://github.com/prymitive/karma/pull/918\" data-hovercard-type=\"pull_request\" data-hovercard-url=\"/prymitive/karma/pull/918/hovercard\">#918</a> feat(demo): generate long list of alerts to test lazy load / pagination</li>\n<li><a href=\"https://github.com/prymitive/karma/pull/917\" data-hovercard-type=\"pull_request\" data-hovercard-url=\"/prymitive/karma/pull/917/hovercard\">#917</a> feat(ci): ensure binaries are present when cross compiling</li>\n<li><a href=\"https://github.com/prymitive/karma/pull/916\" data-hovercard-type=\"pull_request\" data-hovercard-url=\"/prymitive/karma/pull/916/hovercard\">#916</a> chore(backend): move main go code to the cmd folder</li>\n<li><a href=\"https://github.com/prymitive/karma/pull/915\" data-hovercard-type=\"pull_request\" data-hovercard-url=\"/prymitive/karma/pull/915/hovercard\">#915</a> chore(backend): require Go 1.12</li>\n<li><a href=\"https://github.com/prymitive/karma/pull/914\" data-hovercard-type=\"pull_request\" data-hovercard-url=\"/prymitive/karma/pull/914/hovercard\">#914</a> fix(ci): move time zone test env variable to script</li>\n<li><a href=\"https://github.com/prymitive/karma/pull/913\" data-hovercard-type=\"pull_request\" data-hovercard-url=\"/prymitive/karma/pull/913/hovercard\">#913</a> fix(ci): retry failed curl calls correctly</li>\n<li><a href=\"https://github.com/prymitive/karma/pull/912\" data-hovercard-type=\"pull_request\" data-hovercard-url=\"/prymitive/karma/pull/912/hovercard\">#912</a> fix(ci): use custom cache key for cross compilation job</li>\n<li><a href=\"https://github.com/prymitive/karma/pull/910\" data-hovercard-type=\"pull_request\" data-hovercard-url=\"/prymitive/karma/pull/910/hovercard\">#910</a> fix(ci): use name key for naming CI jobs</li>\n<li><a href=\"https://github.com/prymitive/karma/pull/908\" data-hovercard-type=\"pull_request\" data-hovercard-url=\"/prymitive/karma/pull/908/hovercard\">#908</a> fix(ci): don't create new Go cache archive on every Travis CI job</li>\n<li><a href=\"https://github.com/prymitive/karma/pull/907\" data-hovercard-type=\"pull_request\" data-hovercard-url=\"/prymitive/karma/pull/907/hovercard\">#907</a> chore(tests): add snapshot tests for datetime picker</li>\n<li><a href=\"https://github.com/prymitive/karma/pull/904\" data-hovercard-type=\"pull_request\" data-hovercard-url=\"/prymitive/karma/pull/904/hovercard\">#904</a> fix(ci): build all possible platforms</li>\n<li><a href=\"https://github.com/prymitive/karma/pull/903\" data-hovercard-type=\"pull_request\" data-hovercard-url=\"/prymitive/karma/pull/903/hovercard\">#903</a> fix(ci): don't build docker image twice on merge (correct job)</li>\n<li><a href=\"https://github.com/prymitive/karma/pull/902\" data-hovercard-type=\"pull_request\" data-hovercard-url=\"/prymitive/karma/pull/902/hovercard\">#902</a> fix(ci): don't build docker image twice on merge</li>\n<li><a href=\"https://github.com/prymitive/karma/pull/901\" data-hovercard-type=\"pull_request\" data-hovercard-url=\"/prymitive/karma/pull/901/hovercard\">#901</a> chore(ci): run build CI jobs only from master branch</li>\n<li><a href=\"https://github.com/prymitive/karma/pull/900\" data-hovercard-type=\"pull_request\" data-hovercard-url=\"/prymitive/karma/pull/900/hovercard\">#900</a> feat(backend): add external_uri config option for alertmanager upstreams</li>\n<li><a href=\"https://github.com/prymitive/karma/pull/886\" data-hovercard-type=\"pull_request\" data-hovercard-url=\"/prymitive/karma/pull/886/hovercard\">#886</a> feat(ci): enable more Go linters</li>\n<li><a href=\"https://github.com/prymitive/karma/pull/885\" data-hovercard-type=\"pull_request\" data-hovercard-url=\"/prymitive/karma/pull/885/hovercard\">#885</a> chore(ui): upgrade all 3rd party dependencies</li>\n<li><a href=\"https://github.com/prymitive/karma/pull/884\" data-hovercard-type=\"pull_request\" data-hovercard-url=\"/prymitive/karma/pull/884/hovercard\">#884</a> feat(ci): enable more Go linters</li>\n<li><a href=\"https://github.com/prymitive/karma/pull/882\" data-hovercard-type=\"pull_request\" data-hovercard-url=\"/prymitive/karma/pull/882/hovercard\">#882</a> feat(ci): test code formatting on Travis</li>\n<li><a href=\"https://github.com/prymitive/karma/pull/881\" data-hovercard-type=\"pull_request\" data-hovercard-url=\"/prymitive/karma/pull/881/hovercard\">#881</a> feat(test): add prettier to eslint rules</li>\n<li><a href=\"https://github.com/prymitive/karma/pull/880\" data-hovercard-type=\"pull_request\" data-hovercard-url=\"/prymitive/karma/pull/880/hovercard\">#880</a> chore(ui): flash counter badge on value change</li>\n<li><a href=\"https://github.com/prymitive/karma/pull/878\" data-hovercard-type=\"pull_request\" data-hovercard-url=\"/prymitive/karma/pull/878/hovercard\">#878</a> chore(ci): use Go 1.12.9 on Travis</li>\n<li><a href=\"https://github.com/prymitive/karma/pull/875\" data-hovercard-type=\"pull_request\" data-hovercard-url=\"/prymitive/karma/pull/875/hovercard\">#875</a> fix(ui): generate correct group URL</li>\n<li><a href=\"https://github.com/prymitive/karma/pull/869\" data-hovercard-type=\"pull_request\" data-hovercard-url=\"/prymitive/karma/pull/869/hovercard\">#869</a> fix(ui): ensure that progress bar height is always enforced</li>\n</ul>",
      "date_published": "2019-09-16T21:53:42.000Z",
      "author": {
        "name": "prymitive"
      }
    },
    {
      "guid": "tag:github.com,2008:Repository/148022767/v0.43",
      "url": "https://github.com/prymitive/karma/releases/tag/v0.43",
      "title": "v0.43",
      "content_html": "<p>This release moves alert grid sorting logic from the UI to the backend to improve performance when large number of alerts is rendered.</p>\n<p>Full changelog:</p>\n<ul>\n<li><a href=\"https://github.com/prymitive/karma/pull/859\" data-hovercard-type=\"pull_request\" data-hovercard-url=\"/prymitive/karma/pull/859/hovercard\">#859</a> feat(project): move alert group sorting to the backend</li>\n<li><a href=\"https://github.com/prymitive/karma/pull/864\" data-hovercard-type=\"pull_request\" data-hovercard-url=\"/prymitive/karma/pull/864/hovercard\">#864</a> chore(backend): upgrade go-gin-prometheus to the latest version</li>\n<li><a href=\"https://github.com/prymitive/karma/pull/862\" data-hovercard-type=\"pull_request\" data-hovercard-url=\"/prymitive/karma/pull/862/hovercard\">#862</a> feat(api): compress response before putting it in the cache</li>\n<li><a href=\"https://github.com/prymitive/karma/pull/858\" data-hovercard-type=\"pull_request\" data-hovercard-url=\"/prymitive/karma/pull/858/hovercard\">#858</a> fix(ui): cleanup scss variable imports</li>\n<li><a href=\"https://github.com/prymitive/karma/pull/854\" data-hovercard-type=\"pull_request\" data-hovercard-url=\"/prymitive/karma/pull/854/hovercard\">#854</a> chore(ui): upgrade all 3rd party dependencies</li>\n</ul>",
      "date_published": "2019-08-08T21:49:15.000Z",
      "author": {
        "name": "prymitive"
      }
    },
    {
      "guid": "tag:github.com,2008:Repository/148022767/v0.42",
      "url": "https://github.com/prymitive/karma/releases/tag/v0.42",
      "title": "v0.42",
      "content_html": "<p>Modal windows will now hide on <code>Escape</code> key press.<br>\nBug fixes and UI tweaks.</p>\n<p>Full changelog:</p>\n<ul>\n<li><a href=\"https://github.com/prymitive/karma/pull/853\" data-hovercard-type=\"pull_request\" data-hovercard-url=\"/prymitive/karma/pull/853/hovercard\">#853</a> fix(ui): don't reset scroll lock on hidden modal update</li>\n<li><a href=\"https://github.com/prymitive/karma/pull/850\" data-hovercard-type=\"pull_request\" data-hovercard-url=\"/prymitive/karma/pull/850/hovercard\">#850</a> fix(ui): disable hotkeys when modal is hidden</li>\n<li><a href=\"https://github.com/prymitive/karma/pull/848\" data-hovercard-type=\"pull_request\" data-hovercard-url=\"/prymitive/karma/pull/848/hovercard\">#848</a> feat(ui): close modal window when user hits the Escape key</li>\n<li><a href=\"https://github.com/prymitive/karma/pull/847\" data-hovercard-type=\"pull_request\" data-hovercard-url=\"/prymitive/karma/pull/847/hovercard\">#847</a> fix(api): overview modal should sort label names in ascending order</li>\n<li><a href=\"https://github.com/prymitive/karma/pull/846\" data-hovercard-type=\"pull_request\" data-hovercard-url=\"/prymitive/karma/pull/846/hovercard\">#846</a> chore(ci): bump header-max-length to 100</li>\n<li><a href=\"https://github.com/prymitive/karma/pull/838\" data-hovercard-type=\"pull_request\" data-hovercard-url=\"/prymitive/karma/pull/838/hovercard\">#838</a> chore(ui): switch to column render for navbar icons with only 1 filter</li>\n<li><a href=\"https://github.com/prymitive/karma/pull/837\" data-hovercard-type=\"pull_request\" data-hovercard-url=\"/prymitive/karma/pull/837/hovercard\">#837</a> fix(ui): break words on upstream error messages to avoid overflow</li>\n<li><a href=\"https://github.com/prymitive/karma/pull/836\" data-hovercard-type=\"pull_request\" data-hovercard-url=\"/prymitive/karma/pull/836/hovercard\">#836</a> fix(api): ensure that counters add up to 100%</li>\n<li><a href=\"https://github.com/prymitive/karma/pull/833\" data-hovercard-type=\"pull_request\" data-hovercard-url=\"/prymitive/karma/pull/833/hovercard\">#833</a> chore(ui): don't focus input on mobile</li>\n<li><a href=\"https://github.com/prymitive/karma/pull/832\" data-hovercard-type=\"pull_request\" data-hovercard-url=\"/prymitive/karma/pull/832/hovercard\">#832</a> feat(ui): show only common labels in the overview modal by default</li>\n<li><a href=\"https://github.com/prymitive/karma/pull/830\" data-hovercard-type=\"pull_request\" data-hovercard-url=\"/prymitive/karma/pull/830/hovercard\">#830</a> chore(ui): upgrade all 3rd party dependencies</li>\n</ul>",
      "date_published": "2019-08-01T20:33:17.000Z",
      "author": {
        "name": "prymitive"
      }
    },
    {
      "guid": "tag:github.com,2008:Repository/148022767/v0.41",
      "url": "https://github.com/prymitive/karma/releases/tag/v0.41",
      "title": "v0.41",
      "content_html": "<p>By popular request it's now possible to extract username from request headers and use that as the default author on the silence form. See <a href=\"https://github.com/prymitive/karma/blob/master/docs/CONFIGURATION.md#silence-form\">docs</a> for details.<br>\nSmall bug fixes and UI tweaks for the overview modal.</p>\n<p>Full changelog:</p>\n<ul>\n<li><a href=\"https://github.com/prymitive/karma/pull/829\" data-hovercard-type=\"pull_request\" data-hovercard-url=\"/prymitive/karma/pull/829/hovercard\">#829</a> fix(ui): don't crash when removing last matcher value</li>\n<li><a href=\"https://github.com/prymitive/karma/pull/828\" data-hovercard-type=\"pull_request\" data-hovercard-url=\"/prymitive/karma/pull/828/hovercard\">#828</a> fix(ui): don't crash when removing last Alertmanager instance</li>\n<li><a href=\"https://github.com/prymitive/karma/pull/825\" data-hovercard-type=\"pull_request\" data-hovercard-url=\"/prymitive/karma/pull/825/hovercard\">#825</a> chore(ui): disable tooltips on the overview modal</li>\n<li><a href=\"https://github.com/prymitive/karma/pull/824\" data-hovercard-type=\"pull_request\" data-hovercard-url=\"/prymitive/karma/pull/824/hovercard\">#824</a> feat(ui): show the number of hidden label on the overview modal</li>\n<li><a href=\"https://github.com/prymitive/karma/pull/823\" data-hovercard-type=\"pull_request\" data-hovercard-url=\"/prymitive/karma/pull/823/hovercard\">#823</a> feat(ui): allow removing filters from the overview modal</li>\n<li><a href=\"https://github.com/prymitive/karma/pull/821\" data-hovercard-type=\"pull_request\" data-hovercard-url=\"/prymitive/karma/pull/821/hovercard\">#821</a> feat: allow extracting silence author from auth headers</li>\n<li><a href=\"https://github.com/prymitive/karma/pull/819\" data-hovercard-type=\"pull_request\" data-hovercard-url=\"/prymitive/karma/pull/819/hovercard\">#819</a> feat(ui): add an offset to overview modal labels</li>\n</ul>",
      "date_published": "2019-07-14T22:07:58.000Z",
      "author": {
        "name": "prymitive"
      }
    },
    {
      "guid": "tag:github.com,2008:Repository/148022767/v0.40",
      "url": "https://github.com/prymitive/karma/releases/tag/v0.40",
      "title": "v0.40",
      "content_html": "<p>Clicking on top alert counter in the top left corner will now open an overview modal.<br>\nSwitched to Open Sans fonts due to vertical align issues with Lato.</p>\n<p>Full changelog:</p>\n<ul>\n<li><a href=\"https://github.com/prymitive/karma/pull/818\" data-hovercard-type=\"pull_request\" data-hovercard-url=\"/prymitive/karma/pull/818/hovercard\">#818</a> chore(docs): update screenshots and add an overview one</li>\n<li><a href=\"https://github.com/prymitive/karma/pull/817\" data-hovercard-type=\"pull_request\" data-hovercard-url=\"/prymitive/karma/pull/817/hovercard\">#817</a> fix(ui): tweak display of labels on the overview modal</li>\n<li><a href=\"https://github.com/prymitive/karma/pull/816\" data-hovercard-type=\"pull_request\" data-hovercard-url=\"/prymitive/karma/pull/816/hovercard\">#816</a> chore(ui): use xl size for the overview modal</li>\n<li><a href=\"https://github.com/prymitive/karma/pull/815\" data-hovercard-type=\"pull_request\" data-hovercard-url=\"/prymitive/karma/pull/815/hovercard\">#815</a> fix(ui): fix warning progress bar in overview modal</li>\n<li><a href=\"https://github.com/prymitive/karma/pull/814\" data-hovercard-type=\"pull_request\" data-hovercard-url=\"/prymitive/karma/pull/814/hovercard\">#814</a> feat(ui): add a modal with labels overview</li>\n<li><a href=\"https://github.com/prymitive/karma/pull/807\" data-hovercard-type=\"pull_request\" data-hovercard-url=\"/prymitive/karma/pull/807/hovercard\">#807</a> fix(backend): run go mod tidy</li>\n<li><a href=\"https://github.com/prymitive/karma/pull/795\" data-hovercard-type=\"pull_request\" data-hovercard-url=\"/prymitive/karma/pull/795/hovercard\">#795</a> chore(ui): upgrade all 3rd party dependencies</li>\n<li><a href=\"https://github.com/prymitive/karma/pull/792\" data-hovercard-type=\"pull_request\" data-hovercard-url=\"/prymitive/karma/pull/792/hovercard\">#792</a> fix(backend): ensure that we always use default timeout for am requests</li>\n<li><a href=\"https://github.com/prymitive/karma/pull/789\" data-hovercard-type=\"pull_request\" data-hovercard-url=\"/prymitive/karma/pull/789/hovercard\">#789</a> fix(ui): add margin to upstream alerts</li>\n<li><a href=\"https://github.com/prymitive/karma/pull/788\" data-hovercard-type=\"pull_request\" data-hovercard-url=\"/prymitive/karma/pull/788/hovercard\">#788</a> feat(backend): query cluster status via v2 Alertmanager API</li>\n<li><a href=\"https://github.com/prymitive/karma/pull/785\" data-hovercard-type=\"pull_request\" data-hovercard-url=\"/prymitive/karma/pull/785/hovercard\">#785</a> chore(ui): switch from Lato to Open Sans fonts</li>\n<li><a href=\"https://github.com/prymitive/karma/pull/780\" data-hovercard-type=\"pull_request\" data-hovercard-url=\"/prymitive/karma/pull/780/hovercard\">#780</a> fix(ui): reset filter input badge top offset</li>\n</ul>",
      "date_published": "2019-07-11T19:17:23.000Z",
      "author": {
        "name": "prymitive"
      }
    },
    {
      "guid": "tag:github.com,2008:Repository/148022767/v0.39",
      "url": "https://github.com/prymitive/karma/releases/tag/v0.39",
      "title": "v0.39",
      "content_html": "<p>This release contains a few minor UI fixes and dependency updates.</p>\n<p>Full changelog:</p>\n<ul>\n<li><a href=\"https://github.com/prymitive/karma/pull/773\" data-hovercard-type=\"pull_request\" data-hovercard-url=\"/prymitive/karma/pull/773/hovercard\">#773</a> feat(ui): show a spinner while silence is being deleted</li>\n<li><a href=\"https://github.com/prymitive/karma/pull/772\" data-hovercard-type=\"pull_request\" data-hovercard-url=\"/prymitive/karma/pull/772/hovercard\">#772</a> chore(ci): use Go 1.12.6 on Travis</li>\n<li><a href=\"https://github.com/prymitive/karma/pull/769\" data-hovercard-type=\"pull_request\" data-hovercard-url=\"/prymitive/karma/pull/769/hovercard\">#769</a> fix(ui): don't hide the navbar on idle when updates are paused</li>\n<li><a href=\"https://github.com/prymitive/karma/pull/768\" data-hovercard-type=\"pull_request\" data-hovercard-url=\"/prymitive/karma/pull/768/hovercard\">#768</a> feat(ui): pause updates while a filter is being edited</li>\n<li><a href=\"https://github.com/prymitive/karma/pull/761\" data-hovercard-type=\"pull_request\" data-hovercard-url=\"/prymitive/karma/pull/761/hovercard\">#761</a> chore(ui): use FontAwesome icon instead of 'x' for FilterInputLabel</li>\n<li><a href=\"https://github.com/prymitive/karma/pull/758\" data-hovercard-type=\"pull_request\" data-hovercard-url=\"/prymitive/karma/pull/758/hovercard\">#758</a> chore(ui): upgrade all 3rd party dependencies</li>\n<li><a href=\"https://github.com/prymitive/karma/pull/750\" data-hovercard-type=\"pull_request\" data-hovercard-url=\"/prymitive/karma/pull/750/hovercard\">#750</a> fix(ui): add npmrc file with save-exact=true</li>\n<li><a href=\"https://github.com/prymitive/karma/pull/749\" data-hovercard-type=\"pull_request\" data-hovercard-url=\"/prymitive/karma/pull/749/hovercard\">#749</a> fix(ui): apply correct font color to filter input labels</li>\n<li><a href=\"https://github.com/prymitive/karma/pull/746\" data-hovercard-type=\"pull_request\" data-hovercard-url=\"/prymitive/karma/pull/746/hovercard\">#746</a> fix(ui): allow any string as silence author, not just email</li>\n</ul>",
      "date_published": "2019-06-14T18:35:17.000Z",
      "author": {
        "name": "prymitive"
      }
    },
    {
      "guid": "tag:github.com,2008:Repository/148022767/v0.38",
      "url": "https://github.com/prymitive/karma/releases/tag/v0.38",
      "title": "v0.38",
      "content_html": "<p>This release adds <code>--check-config</code> flag for validating configuration.<br>\nThere is also new logging config option to output JSON formatted messages instead of plain text (<a class=\"user-mention\" data-hovercard-type=\"user\" data-hovercard-url=\"/hovercards?user_id=2377233\" data-octo-click=\"hovercard-link-click\" data-octo-dimensions=\"link_type:self\" href=\"https://github.com/GiedriusS\">@GiedriusS</a>).</p>\n<p>Full changelog:</p>\n<ul>\n<li><a href=\"https://github.com/prymitive/karma/pull/740\" data-hovercard-type=\"pull_request\" data-hovercard-url=\"/prymitive/karma/pull/740/hovercard\">#740</a> chore(ui): migrate from yarn to npm</li>\n<li><a href=\"https://github.com/prymitive/karma/pull/737\" data-hovercard-type=\"pull_request\" data-hovercard-url=\"/prymitive/karma/pull/737/hovercard\">#737</a> feat(backend): add --check-config flag for validating configuration</li>\n<li><a href=\"https://github.com/prymitive/karma/pull/734\" data-hovercard-type=\"pull_request\" data-hovercard-url=\"/prymitive/karma/pull/734/hovercard\">#734</a> chore(ui): upgrade all 3rd party dependencies</li>\n<li><a href=\"https://github.com/prymitive/karma/pull/733\" data-hovercard-type=\"pull_request\" data-hovercard-url=\"/prymitive/karma/pull/733/hovercard\">#733</a> chore(docs): add log:format option to the docs</li>\n<li><a href=\"https://github.com/prymitive/karma/pull/732\" data-hovercard-type=\"pull_request\" data-hovercard-url=\"/prymitive/karma/pull/732/hovercard\">#732</a> fix(ui): use width passed by ReactResizeDetector instead of body width</li>\n<li><a href=\"https://github.com/prymitive/karma/pull/731\" data-hovercard-type=\"pull_request\" data-hovercard-url=\"/prymitive/karma/pull/731/hovercard\">#731</a> feat(backend): add ability to configure log format (<a class=\"user-mention\" data-hovercard-type=\"user\" data-hovercard-url=\"/hovercards?user_id=2377233\" data-octo-click=\"hovercard-link-click\" data-octo-dimensions=\"link_type:self\" href=\"https://github.com/GiedriusS\">@GiedriusS</a>)</li>\n</ul>",
      "date_published": "2019-05-30T19:22:25.000Z",
      "author": {
        "name": "prymitive"
      }
    },
    {
      "guid": "tag:github.com,2008:Repository/148022767/v0.37",
      "url": "https://github.com/prymitive/karma/releases/tag/v0.37",
      "title": "v0.37",
      "content_html": "<p>Added graceful shutdown support, this should prevent breaking in flight request when karma is stopping.<br>\nJS/CSS assets are now split into more files and loaded when needed. This allows to minimize assets size on page load. Will be visible when opening modal windows (settings and silence form) for the first time as they will need to fetch extra assets.</p>\n<p>Full changelog:</p>\n<ul>\n<li><a href=\"https://github.com/prymitive/karma/pull/713\" data-hovercard-type=\"pull_request\" data-hovercard-url=\"/prymitive/karma/pull/713/hovercard\">#713</a> feat(backend): graceful shutdown support</li>\n<li><a href=\"https://github.com/prymitive/karma/pull/712\" data-hovercard-type=\"pull_request\" data-hovercard-url=\"/prymitive/karma/pull/712/hovercard\">#712</a> chore(tests): add more backend test coverage</li>\n<li><a href=\"https://github.com/prymitive/karma/pull/711\" data-hovercard-type=\"pull_request\" data-hovercard-url=\"/prymitive/karma/pull/711/hovercard\">#711</a> chore(tests): add more asserts in metrics tests</li>\n<li><a href=\"https://github.com/prymitive/karma/pull/710\" data-hovercard-type=\"pull_request\" data-hovercard-url=\"/prymitive/karma/pull/710/hovercard\">#710</a> feat(ui): animate alert counter on changes</li>\n<li><a href=\"https://github.com/prymitive/karma/pull/708\" data-hovercard-type=\"pull_request\" data-hovercard-url=\"/prymitive/karma/pull/708/hovercard\">#708</a> chore(backend): add test coverage for metrics handler</li>\n<li><a href=\"https://github.com/prymitive/karma/pull/707\" data-hovercard-type=\"pull_request\" data-hovercard-url=\"/prymitive/karma/pull/707/hovercard\">#707</a> fix(ui): matcher badge and close icon css fixes</li>\n<li><a href=\"https://github.com/prymitive/karma/pull/631\" data-hovercard-type=\"pull_request\" data-hovercard-url=\"/prymitive/karma/pull/631/hovercard\">#631</a> feat(ui): lazy load modals</li>\n<li><a href=\"https://github.com/prymitive/karma/pull/704\" data-hovercard-type=\"pull_request\" data-hovercard-url=\"/prymitive/karma/pull/704/hovercard\">#704</a> feat(backend): add alertmanager v0.17.0 mock files for testing</li>\n<li><a href=\"https://github.com/prymitive/karma/pull/703\" data-hovercard-type=\"pull_request\" data-hovercard-url=\"/prymitive/karma/pull/703/hovercard\">#703</a> fix(ui): fix alert menu content being under other alert groups</li>\n<li><a href=\"https://github.com/prymitive/karma/pull/701\" data-hovercard-type=\"pull_request\" data-hovercard-url=\"/prymitive/karma/pull/701/hovercard\">#701</a> feat(ui): add shadows to dropdown menus</li>\n</ul>",
      "date_published": "2019-05-14T07:18:51.000Z",
      "author": {
        "name": "prymitive"
      }
    },
    {
      "guid": "tag:github.com,2008:Repository/148022767/v0.36",
      "url": "https://github.com/prymitive/karma/releases/tag/v0.36",
      "title": "v0.36",
      "content_html": "<p>This release fixes issue with auth headers not being set correctly for alertmanager <code>0.17.0</code> (<a class=\"issue-link js-issue-link\" data-error-text=\"Failed to load issue title\" data-id=\"441787404\" data-permission-text=\"Issue title is private\" data-url=\"https://github.com/prymitive/karma/issues/689\" data-hovercard-type=\"issue\" data-hovercard-url=\"/prymitive/karma/issues/689/hovercard\" href=\"https://github.com/prymitive/karma/issues/689\">#689</a>).</p>\n<ul>\n<li><a href=\"https://github.com/prymitive/karma/pull/699\" data-hovercard-type=\"pull_request\" data-hovercard-url=\"/prymitive/karma/pull/699/hovercard\">#699</a> fix(backend): pass basic auth to the v2 API mapper</li>\n<li><a href=\"https://github.com/prymitive/karma/pull/695\" data-hovercard-type=\"pull_request\" data-hovercard-url=\"/prymitive/karma/pull/695/hovercard\">#695</a> chore(ci): use Go 1.12.5 on Travis</li>\n<li><a href=\"https://github.com/prymitive/karma/pull/694\" data-hovercard-type=\"pull_request\" data-hovercard-url=\"/prymitive/karma/pull/694/hovercard\">#694</a> chore(ui): upgrade all 3rd party dependencies</li>\n<li><a href=\"https://github.com/prymitive/karma/pull/688\" data-hovercard-type=\"pull_request\" data-hovercard-url=\"/prymitive/karma/pull/688/hovercard\">#688</a> fix(ui): use rem as unit for badge-pill in the group header</li>\n<li><a href=\"https://github.com/prymitive/karma/pull/682\" data-hovercard-type=\"pull_request\" data-hovercard-url=\"/prymitive/karma/pull/682/hovercard\">#682</a> fix(ui): use label class for silence matchers to prevent overflow</li>\n</ul>",
      "date_published": "2019-05-09T19:54:28.000Z",
      "author": {
        "name": "prymitive"
      }
    }
  ]
}